{
5
	{
	17
		1
			1
		1
			1
		1
			1
		1
			1
		1
			1
		1
			1
		1
			1
		1
			1
		1
			1
		1
			1
		1
			1
		1
			1
		1
			1
		1
			1
		1
			1
		1
			1
		1
			1
	}
	{
	50
		-0.0647868
		-0.285389
		0.0662383
		-0.00321879
		0.55435
		-0.331727
		0.374468
		0.257868
		0.293123
		0.987874
		-0.697866
		-0.386152
		-0.085789
		0.438299
		-0.0346846
		0.11316
		0.312885
			1.02722
		0.102601
		0.133068
		-0.039916
		-0.944079
		0.291381
		-0.496292
		-0.343294
		0.819973
		-0.123119
		-0.484474
		-0.887001
		0.865109
		0.910825
		0.171512
		-0.784075
		-0.0671063
		0.69145
			1.02406
		-0.106479
		0.96645
		-0.696165
		-0.375229
		-0.492305
		0.176376
		0.264621
		-0.712349
		-0.586561
		0.745831
		0.385743
		-0.793258
		-0.844545
		0.941291
		0.936054
		0.801305
		0.389461
			0.983902
		-0.737803
		0.0194955
		-0.352897
		-0.352698
		-0.73577
		-0.068316
		0.471582
		0.203958
		0.704036
		-0.417867
		0.153001
		-0.146019
		0.693489
		0.348604
		-0.0513423
		-0.0960592
		-0.453129
			1.00357
		0.259905
		-0.515477
		0.504167
		0.722795
		-0.650774
		-0.592291
		0.253618
		-0.943196
		0.980418
		0.532607
		0.16976
		-0.179646
		0.961352
		-0.947023
		0.126092
		0.457371
		-0.563509
			0.982332
		0.867431
		-0.742302
		0.969315
		0.957515
		0.602666
		-0.428182
		-0.221436
		0.58086
		-0.040242
		0.836137
		0.306753
		-0.890707
		-0.0116407
		0.370404
		-0.280977
		-0.0577419
		0.634552
			0.987921
		0.540167
		-0.723929
		-0.254751
		-0.428051
		-0.216023
		-0.783082
		0.504896
		0.189214
		0.0749251
		0.0825101
		-0.945875
		0.74147
		-0.193207
		-0.722779
		-0.948644
		0.826581
		0.0555428
			0.982268
		0.174555
		0.00749143
		0.754176
		0.67728
		-0.410444
		-0.955468
		0.822958
		-0.349807
		0.3543
		-0.364798
		0.310184
		-0.290203
		0.655102
		-0.536162
		-0.397868
		-0.251483
		-0.650059
			1.00862
		-0.73524
		0.425869
		0.380997
		0.662326
		0.822771
		-0.235751
		-0.726626
		0.908402
		-0.0633946
		0.541231
		-0.136232
		0.243986
		-0.481587
		0.183902
		-0.998256
		0.487983
		0.844801
			0.948882
		0.0357576
		-0.784741
		0.188638
		-0.958346
		0.96682
		0.538595
		-0.887661
		-0.197349
		0.78952
		0.707344
		0.45486
		-0.889137
		0.672058
		-0.10433
		0.64799
		-0.241533
		-0.695467
			1.06332
		0.615594
		0.0836864
		0.210343
		-0.114075
		-0.503041
		-0.413249
		0.00947689
		-0.387967
		-0.659735
		-0.965623
		0.345863
		0.929098
		0.420118
		-0.425646
		-0.76805
		-0.179449
		0.792378
			0.971402
		0.831433
		-0.280376
		0.0545504
		0.729401
		-0.898406
		0.67764
		-0.166962
		0.422101
		0.321702
		-0.345647
		-0.123161
		-0.146287
		0.762516
		0.711154
		0.0706275
		-0.605361
		-0.730569
			1.01024
		0.278081
		-0.830288
		-0.30234
		-0.209772
		-0.522248
		-0.213861
		-0.482661
		0.456263
		-0.112955
		0.666775
		-0.0422984
		-0.95473
		0.499892
		0.518707
		-0.559315
		-0.348882
		0.584586
			1.00309
		-0.556371
		0.955117
		0.599583
		-0.262848
		0.59912
		0.234627
		0.536753
		0.716983
		0.369334
		-0.0349452
		-0.667319
		-0.484769
		-0.869235
		-0.0141279
		0.952137
		-0.966678
		-0.350568
			0.992349
		0.324852
		0.738294
		0.578861
		-0.753796
		-0.109349
		0.144956
		-0.972601
		0.609916
		0.425515
		0.622028
		-0.064893
		0.619886
		-0.233554
		-0.025587
		0.32738
		-0.170664
		-0.722661
			1.04701
		0.311834
		-0.345955
		0.489498
		-0.0266253
		0.411655
		0.91608
		-0.691107
		-0.228831
		0.373899
		-0.770052
		-0.538689
		-0.0972719
		0.898669
		-0.560246
		0.932609
		-0.972169
		0.0447722
			0.95074
		0.997549
		-0.974769
		0.359085
		-0.905355
		-0.0193472
		-0.477978
		0.176497
		0.237414
		0.631218
		-0.619362
		0.188649
		0.259895
		0.198803
		-0.300338
		0.967247
		0.61437
		-0.627535
			1.02183
		-0.216662
		-0.41477
		0.301991
		-0.42986
		-0.817191
		0.124738
		-0.5258
		-0.998276
		0.640759
		-0.921157
		0.190093
		-0.701739
		0.222364
		0.650888
		-0.607882
		0.491981
		0.500243
			0.956568
		-0.878166
		-0.752177
		-0.743208
		-0.235441
		0.62116
		-0.309709
		-0.538291
		0.835147
		-0.0509357
		-0.1367
		0.506971
		-0.977754
		0.570547
		0.213998
		-0.584081
		-0.787197
		-0.454664
			0.952263
		-0.25381
		0.707451
		0.105523
		-0.719106
		0.530351
		-0.449912
		0.652727
		-0.288026
		0.645314
		-0.834382
		0.292527
		-0.369476
		0.362359
		0.514328
		-0.389084
		0.74902
		-0.535294
			0.98091
		0.456081
		-0.820403
		0.644008
		0.878103
		-0.812133
		-0.829177
		0.408571
		-0.685718
		0.175038
		-0.754751
		0.0885198
		-0.165654
		0.167656
		-0.00837337
		0.348805
		-0.760971
		-0.553781
			1.01819
		-0.322966
		0.682317
		-0.3035
		-0.551924
		0.328113
		0.0410783
		-0.599806
		0.488303
		-0.580376
		-0.487017
		0.798066
		0.474411
		0.840079
		-0.0376974
		-0.061171
		-0.0335011
		-0.880015
			0.991924
		0.532355
		-0.138762
		0.281113
		-0.659422
		0.978634
		0.284396
		-0.950026
		-0.453055
		0.796579
		0.290787
		-0.0441429
		0.0165383
		-0.880553
		0.267951
		-0.65527
		-0.804208
		-0.795934
			1.00716
		0.861829
		-0.851043
		0.861421
		-0.70461
		0.569329
		-0.499464
		-0.56404
		-0.931696
		0.347244
		-0.542976
		-0.365666
		-0.086718
		-0.279776
		0.829225
		0.820245
		-0.377681
		0.593808
			1.0187
		-0.904247
		0.974808
		-0.194661
		-0.733913
		-0.210387
		0.561404
		-0.769672
		0.347651
		0.742854
		-0.351548
		-0.949033
		-0.444111
		-0.859032
		-0.556336
		0.959277
		0.138669
		0.940629
			1.00447
		0.0468828
		0.231334
		-0.766036
		-0.879518
		-0.240493
		0.670837
		0.851111
		0.380298
		-0.70584
		0.0631028
		0.949539
		-0.793987
		0.592888
		0.822422
		-0.683006
		-0.266227
		0.119702
			0.991153
		-0.893034
		0.017449
		-0.318776
		0.406736
		-0.83683
		0.795236
		0.344493
		-0.0982364
		-0.25917
		0.88118
		0.1469
		0.762407
		-0.51001
		-0.242187
		0.79344
		0.125963
		0.331085
			1.02524
		-0.444599
		-0.827634
		-0.55625
		-0.305572
		0.402812
		0.0231608
		0.31585
		0.196181
		0.891497
		-0.228037
		0.754663
		0.134161
		0.163737
		0.167121
		-0.639897
		-0.515774
		-0.724424
			1.01538
		-0.97394
		0.93267
		0.00389935
		0.736555
		0.47269
		0.232602
		-0.813969
		0.9016
		0.591256
		-0.948249
		-0.663293
		-0.233831
		0.682492
		0.238254
		-0.48831
		-0.992598
		0.490478
			1.00281
		0.990497
		-0.84095
		0.825763
		0.89927
		-0.575073
		0.298764
		-0.234108
		0.105165
		0.916535
		-0.928987
		-0.615883
		0.158534
		-0.0473858
		-0.226616
		0.8073
		0.990924
		-0.587587
			1.01373
		-0.0514527
		-0.9449
		0.540537
		0.834352
		-0.543945
		-0.507312
		-0.606122
		-0.183249
		0.900163
		0.590238
		0.0806339
		-0.326861
		-0.283618
		-0.141532
		0.365309
		0.570394
		-0.926545
			0.97794
		0.286568
		-0.593578
		0.00431751
		0.808423
		-0.937855
		0.695421
		0.36461
		0.3435
		-0.761657
		-0.664546
		-0.400267
		-0.731713
		-0.495932
		-0.714934
		0.788364
		-0.864619
		0.926305
			1.02922
		-0.0629844
		0.262242
		-0.802394
		-0.499272
		0.42598
		0.00815177
		-0.726354
		0.474636
		0.6477
		0.505331
		-0.760594
		-0.646606
		-0.920741
		-0.222345
		-0.973264
		0.720662
		-0.196806
			1.02314
		0.0377297
		0.343271
		-0.854356
		0.841011
		-0.141023
		-0.0714423
		0.192556
		0.961928
		0.680763
		-0.619384
		-0.588846
		0.641122
		-0.420458
		0.470327
		-0.582637
		-0.26428
		-0.180508
			1.00329
		-0.72582
		0.982617
		0.419633
		0.273905
		-0.730749
		-0.0897247
		-0.389965
		-0.599795
		0.857271
		0.165632
		-0.134155
		-0.0513837
		-0.298517
		0.474162
		-0.0318555
		-0.0362392
		0.0539168
			1.04638
		-0.396881
		0.368063
		-0.148956
		-0.802514
		0.535515
		0.387851
		0.146079
		0.0721576
		-0.617287
		0.682074
		-0.331254
		0.371136
		-0.223093
		0.689686
		-0.755355
		0.778911
		0.831127
			0.966677
		0.61925
		0.820043
		0.909695
		-0.729273
		0.0699694
		-0.422607
		-0.527605
		-0.252543
		0.515764
		-0.179183
		-0.784884
		-0.365409
		-0.254158
		0.803441
		-0.873939
		0.814282
		0.243473
			0.96881
		0.27187
		0.899996
		0.938219
		0.59398
		-0.68831
		-0.595227
		-0.387819
		-0.576621
		0.780185
		0.716745
		-0.797272
		-0.421913
		0.899641
		-0.800784
		-0.782777
		-0.526306
		-0.619745
			0.972501
		-0.443345
		-0.872908
		-0.994144
		0.661758
		0.495936
		0.743475
		-0.298338
		-0.199082
		0.962227
		0.50924
		0.881156
		0.279472
		-0.726101
		0.477926
		0.186533
		0.600466
		0.983963
			0.960628
		-0.207958
		0.339809
		0.22553
		-0.130983
		-0.815158
		0.242555
		-0.00924805
		0.402224
		-0.889803
		-0.842926
		-0.401444
		0.312686
		-0.750059
		-0.0156997
		-0.821366
		-0.314136
		0.115717
			1.03103
		-0.894469
		0.957616
		-0.56338
		0.683417
		-0.979082
		-0.244658
		-0.34704
		-0.418622
		0.670345
		0.557215
		0.297235
		-0.700059
		0.599577
		-0.0814951
		0.734801
		-0.142518
		0.231903
			1.0096
		-0.456668
		0.191981
		0.223733
		0.991959
		-0.042548
		-0.00197974
		0.833229
		-0.61656
		0.97546
		0.309883
		-0.910717
		-0.0083557
		-0.994637
		-0.515532
		0.788051
		0.899083
		-0.621891
			1.03555
		0.325665
		0.535969
		0.698902
		-0.735034
		-0.59598
		-0.761268
		0.397263
		0.328431
		0.700272
		0.942877
		0.788965
		0.91538
		0.613059
		-0.314114
		0.909482
		0.34269
		-0.529643
			0.986545
		0.0280316
		0.434455
		-0.880795
		-0.961584
		-0.226508
		0.720521
		0.942151
		-0.51757
		0.116083
		0.27059
		-0.526781
		-3.75379e-05
		-0.0943184
		0.811295
		-0.645903
		-0.706878
		-0.114705
			0.998598
		0.138591
		-0.672759
		-0.579434
		-0.284946
		-0.819809
		0.973518
		0.814285
		0.219413
		0.804633
		-0.391096
		0.779985
		0.0930817
		0.451212
		0.266696
		-0.845942
		0.969635
		0.00146459
			1.00225
		-0.887501
		0.639901
		-0.506056
		-0.962237
		0.0739478
		0.675999
		0.568244
		0.276484
		0.386979
		-0.0904932
		0.210427
		0.991604
		0.773543
		0.906011
		-0.440291
		0.953161
		0.516005
			0.988044
		0.492987
		-0.144375
		-0.0658892
		0.2589
		-0.384129
		-0.914588
		-0.31956
		-0.0421103
		0.34842
		-0.0716468
		-0.895929
		-0.290327
		0.905309
		0.318884
		0.274236
		-0.581835
		0.95073
			1.02004
		-0.448135
		0.0691882
		-0.398504
		0.796005
		-0.123918
		0.261858
		-0.692659
		-0.870967
		0.618842
		-0.594968
		0.289275
		0.110022
		-0.468123
		0.150494
		-0.91763
		0.452952
		0.143904
			1.02236
		-0.871715
		0.779872
		0.266568
		0.318802
		-0.873528
		-0.804694
		-0.15244
		-0.0178524
		0.5916
		-0.588347
		0.69249
		0.558241
		0.232158
		-0.95989
		-0.252363
		-0.421737
		-0.446788
			0.958546
		-0.895987
		-0.720028
		0.510173
		-0.541352
		-0.573628
		0.782892
		-0.0936397
		-0.129453
		0.923823
		0.047622
		0.813547
		-0.69033
		0.7514
		0.630213
		-0.771824
		-0.57781
		-0.607643
			0.974401
	}
	{
	30
		0.263012
		-0.0121669
		-0.480209
		0.167316
		-0.824093
		-0.717752
		0.739621
		0.810754
		0.98277
		-0.743746
		-0.0208854
		0.473328
		-0.146901
		-0.695135
		0.730426
		-0.941575
		-0.29063
		-0.0450841
		-0.197802
		-0.697891
		-0.533174
		-0.759241
		-0.0795193
		0.429102
		0.132661
		-0.614746
		0.753023
		0.776969
		-0.337559
		-0.151968
		-0.847573
		-0.296369
		-0.43641
		-0.787731
		0.402585
		-0.632974
		-0.614909
		0.69312
		-0.992972
		-0.247861
		0.28329
		0.858255
		0.287175
		-0.22657
		-0.457842
		0.403396
		0.817826
		0.228666
		0.178949
		0.734436
			1.03688
		0.129446
		-0.803716
		0.937264
		-0.541488
		-0.894115
		0.96986
		0.311086
		0.363891
		-0.281815
		0.0999197
		-0.657685
		0.817983
		0.396025
		-0.0644359
		0.0799441
		-0.00480942
		-0.217869
		0.819884
		-0.769538
		-0.600639
		0.724502
		0.921815
		-0.401148
		-0.830611
		0.775573
		0.624824
		0.481368
		0.747179
		-0.952467
		-0.03042
		0.813832
		0.620904
		-0.101101
		0.922081
		0.245959
		-0.290775
		0.539383
		-0.675319
		0.52434
		-0.0796304
		0.171124
		-0.898618
		0.975647
		0.992758
		-0.907768
		0.594871
		0.431606
		-0.528253
		0.779242
		0.0660259
			1.00626
		0.197692
		0.379967
		-0.934064
		-0.671879
		0.27478
		0.62401
		-0.146319
		0.148926
		-0.60903
		0.308624
		0.0520844
		0.259357
		0.335258
		0.153038
		-0.583251
		-0.196303
		0.0508545
		-0.791597
		-0.659667
		0.954879
		-0.642289
		-0.771059
		-0.951744
		-0.196502
		-0.907653
		-0.730181
		-0.97963
		-0.919844
		-0.691038
		0.0212631
		-0.830045
		0.192032
		-0.383227
		0.913422
		0.990958
		0.525989
		-0.202093
		-0.8393
		0.837212
		-0.759582
		0.54009
		0.961706
		0.639342
		-0.302897
		-0.37161
		-0.659499
		0.0758797
		0.815072
		0.0505146
		0.969116
			1.01088
		0.394762
		-0.325823
		-0.556639
		0.616754
		0.0145992
		-0.22465
		-0.484783
		0.583197
		-0.315142
		-0.891619
		-0.334213
		0.856629
		-0.616268
		-0.0314173
		-0.248831
		0.195117
		-0.79098
		0.816665
		0.0753725
		-0.384053
		-0.229999
		0.151805
		-0.629355
		0.743239
		-0.857845
		-0.646166
		-0.0720337
		0.823445
		-0.262045
		0.25966
		-0.775094
		0.528938
		0.253938
		0.0880749
		-0.151551
		-0.601692
		-0.552502
		0.0581777
		-0.681967
		0.152902
		0.544202
		-0.945742
		-0.932244
		0.319487
		-0.972168
		-0.416875
		0.472659
		-0.382638
		0.275641
		0.916651
			1.02655
		-0.585359
		-0.240463
		-0.663051
		0.84351
		0.691912
		-0.360357
		-0.0229813
		0.794356
		0.72904
		0.529795
		-0.7305
		0.424668
		-0.0153902
		0.978472
		-0.442142
		-0.905911
		0.01962
		0.0377797
		0.617424
		-0.687678
		-0.911675
		0.820288
		0.667319
		-0.0398678
		-0.877061
		-0.109167
		0.287865
		0.975888
		0.66138
		0.526335
		0.666333
		0.134456
		0.178026
		0.556131
		-0.533154
		0.71583
		0.726063
		-0.187721
		-0.891777
		0.349133
		-0.14851
		-0.514678
		0.283685
		0.670857
		0.127648
		-0.0620987
		0.487319
		0.401983
		-0.449985
		-0.102055
			0.983176
		-0.383808
		-0.0919001
		0.562293
		-0.0491272
		-0.799778
		-0.848316
		-0.166526
		0.0645481
		0.116772
		-0.670472
		0.77558
		0.236753
		0.569438
		0.451753
		-0.75348
		0.0783762
		0.579706
		0.780133
		0.770855
		-0.403974
		0.497559
		0.685222
		-0.453773
		-0.360808
		-0.682418
		0.304425
		0.566212
		0.779361
		-0.78135
		0.151138
		0.3907
		-0.333895
		-0.586594
		-0.486178
		0.846422
		0.774199
		0.824319
		0.89468
		-0.532059
		0.32606
		0.493712
		-0.23323
		0.463481
		0.424104
		-0.0151521
		0.160313
		-0.165303
		-0.702931
		-0.140605
		-0.244471
			0.979353
		-0.297195
		-0.953623
		-0.0212406
		-0.720147
		0.230058
		0.0848063
		-0.442725
		0.0421922
		-0.366948
		0.956033
		-0.386164
		-0.94958
		0.929964
		0.814592
		-0.292349
		-0.392435
		0.319582
		0.371028
		0.276818
		-0.29783
		0.738778
		-0.682777
		-0.0521076
		0.735949
		0.76743
		0.46899
		0.677739
		0.436912
		-0.604081
		0.400725
		-0.464727
		-0.389301
		-0.500514
		0.600894
		0.924098
		-0.0686523
		0.713208
		0.903577
		-1
		0.123382
		0.979622
		0.184292
		-0.459241
		0.457615
		-0.246003
		0.0363405
		0.927362
		-0.927838
		0.679715
		0.354343
			1.01457
		-0.0801669
		0.687485
		0.594626
		0.739219
		0.10916
		0.233209
		-0.105684
		0.0759029
		0.392988
		0.795892
		-0.343746
		0.522804
		0.584772
		0.130857
		-0.423119
		0.654361
		0.699912
		-0.814504
		0.0638346
		-0.552669
		0.698899
		0.41638
		-0.376578
		0.00628289
		0.267778
		0.135855
		-0.203615
		-0.976522
		0.536331
		0.384879
		0.919458
		-0.0183493
		0.00717889
		-0.226699
		0.219456
		-0.700423
		-0.903608
		0.0253966
		-0.563456
		0.949635
		0.558835
		-0.648171
		0.663822
		0.00652455
		0.61843
		0.585103
		0.579668
		-0.382925
		0.457317
		-0.0791409
			0.982952
		-0.261854
		-0.0974465
		0.213384
		0.279054
		-0.252684
		0.237515
		-0.519373
		0.6041
		0.26326
		0.622757
		0.586402
		-0.380689
		-0.41229
		0.794089
		0.630689
		-0.926672
		-0.779791
		0.868283
		0.147695
		-0.800295
		0.38082
		0.852012
		0.426728
		0.852342
		0.852504
		0.112316
		0.268392
		-0.165945
		0.522399
		0.0304212
		-0.689242
		-0.0439232
		-0.56858
		-0.44928
		0.089513
		0.854619
		0.971303
		0.627156
		0.166594
		0.802148
		0.778307
		0.65838
		0.0321863
		0.359917
		-0.015826
		0.293904
		-0.306346
		-0.291988
		-0.507854
		0.183127
			1.0127
		-0.874105
		0.515126
		0.981744
		-0.455538
		-0.97564
		0.462986
		0.933231
		-0.808827
		0.900554
		0.24412
		0.724932
		0.499018
		-0.156621
		-0.767839
		-0.856137
		0.833101
		-0.292314
		0.482566
		0.0758742
		0.930058
		-0.648392
		0.245836
		-0.917273
		0.0729506
		0.789499
		-0.201803
		-0.630837
		0.139533
		0.805227
		0.807978
		-0.88052
		-0.803097
		0.704029
		0.428262
		0.618685
		0.889231
		-0.670929
		0.154227
		-0.0435515
		0.629972
		0.660099
		-0.224503
		-0.270898
		-0.514086
		0.800182
		0.581787
		-0.740981
		-0.734803
		-0.910987
		-0.647932
			0.97121
		-0.601582
		-0.857515
		-0.160934
		-0.878624
		-0.466449
		0.725103
		-0.780753
		0.761577
		-0.143111
		-0.0161171
		-0.484763
		0.640259
		0.809499
		0.955567
		0.488092
		0.612088
		0.303649
		0.722903
		0.0381955
		0.197429
		-0.757708
		-0.844134
		0.611588
		0.0224376
		-0.473842
		-0.0739101
		0.442235
		-0.612305
		0.434117
		-0.716945
		-0.708302
		-0.871491
		0.411363
		-0.871508
		0.213819
		0.0574868
		0.428669
		-0.264817
		0.924641
		-0.688365
		-0.732183
		-0.511705
		-0.8727
		-0.443446
		-0.842321
		-0.525187
		0.85027
		0.7285
		0.174824
		-0.761036
			1.02814
		-0.434423
		-0.359454
		0.358324
		0.118585
		0.442596
		-0.0497418
		-0.624535
		0.362323
		-0.877764
		-0.752726
		-0.271193
		0.450099
		-0.0878576
		-0.930838
		-0.1037
		-0.990916
		0.891294
		0.248127
		0.661916
		-0.832452
		0.0204245
		-0.390778
		0.219199
		0.555594
		0.791237
		0.88927
		-0.587705
		-0.114569
		0.907569
		-0.459126
		-0.219858
		0.37884
		0.359738
		-0.0626762
		-0.598689
		0.196813
		0.904406
		0.300055
		-0.153406
		-0.25024
		0.871226
		0.746349
		0.295701
		-0.524954
		-0.231126
		-0.101463
		0.0653282
		0.840191
		0.19195
		-0.528294
			1.03689
		-0.679721
		0.248404
		-0.550042
		0.934946
		-0.97703
		0.916521
		-0.594898
		0.19458
		-0.926407
		0.403454
		0.655543
		-0.16273
		-0.280036
		0.372434
		0.570555
		-0.811038
		0.447795
		-0.81862
		-0.655565
		-0.80847
		0.86742
		0.97375
		-0.527489
		0.751499
		-0.248139
		0.103845
		0.023787
		-0.0200552
		0.323447
		0.827091
		0.073473
		0.252128
		-0.0964407
		-0.905142
		-0.709117
		0.28177
		-0.723378
		0.587317
		-0.274043
		-0.321769
		-0.233828
		0.0688671
		0.849964
		-0.4169
		0.272728
		-0.827996
		-0.00682792
		-0.00723014
		0.293627
		-0.324475
			1.00376
		-0.0117103
		0.445995
		-0.513887
		0.967614
		0.563349
		0.829034
		0.122687
		0.970648
		0.987087
		-0.773835
		-0.634259
		-0.981025
		0.384184
		-0.738361
		0.057825
		-0.928943
		-0.0267766
		0.149272
		-0.22123
		-0.487759
		0.35189
		0.28428
		-0.371353
		-0.544947
		-0.825484
		0.597526
		0.762361
		-0.717495
		0.499445
		-0.438117
		-0.351881
		-0.380404
		-0.00776238
		-0.650375
		0.232357
		0.686932
		-0.378181
		-0.908909
		-0.558109
		-0.0389499
		-0.362691
		-0.746996
		-0.63403
		-0.143916
		0.880639
		0.226417
		-0.110125
		0.510551
		-0.916357
		0.723691
			0.951569
		0.701561
		-0.377533
		-0.442004
		-0.751648
		1
		-0.255944
		0.0207608
		0.0777193
		-0.0208402
		0.847037
		-0.251231
		-0.327495
		-0.110136
		-0.224565
		-0.91431
		0.984282
		-0.9879
		-0.714594
		0.0100848
		0.226285
		0.394157
		0.0297876
		-0.190985
		0.790593
		-0.355132
		-0.374768
		-0.994517
		-0.99317
		-0.291273
		0.858672
		0.760526
		-0.224485
		-0.548277
		-0.680265
		-0.305465
		0.616794
		0.610568
		-0.622848
		0.435919
		0.847349
		-0.0503797
		0.283683
		0.937055
		0.726827
		0.449643
		0.129084
		0.0830973
		-0.474549
		0.851247
		-0.213615
			0.975366
		0.675416
		-0.651737
		-0.215804
		-0.967856
		-0.00772024
		0.735806
		-0.99525
		0.723962
		0.0545893
		0.42782
		0.206649
		0.423583
		0.216719
		0.382838
		0.865652
		0.43053
		0.615473
		0.833731
		-0.526014
		-0.0444938
		0.771008
		-0.726517
		-0.0378292
		0.0484307
		-0.560042
		-0.496991
		-0.894892
		-0.298435
		0.343505
		-0.745431
		0.149117
		-0.46253
		0.781747
		0.336038
		0.776689
		0.0600815
		-0.103524
		-0.910607
		-0.652216
		-0.380157
		-0.825426
		-0.690698
		0.563475
		0.871195
		-0.626708
		-0.545638
		0.987737
		-0.608576
		0.279438
		-0.923512
			0.998882
		0.826246
		-0.128692
		-0.336142
		-0.649814
		0.827374
		0.572651
		0.201188
		-0.491898
		0.0612722
		0.615289
		0.276939
		-0.361601
		0.872202
		-0.305508
		0.692808
		-0.556604
		0.820683
		-0.765074
		-0.375422
		-0.403896
		0.0166597
		0.810367
		-0.869164
		-0.328517
		-0.267289
		0.8408
		0.768533
		-0.722194
		-0.762558
		0.489671
		0.109087
		0.704972
		0.418621
		0.832471
		0.840478
		0.556073
		0.434802
		0.518482
		0.088999
		0.720203
		-0.214212
		-0.102015
		-0.915077
		-0.167824
		-0.239973
		-0.383034
		-0.75301
		-0.363187
		-0.230594
		-0.470032
			1.0099
		0.326318
		-0.462733
		-0.241392
		0.94271
		0.864468
		-0.246127
		-0.437788
		-0.105126
		0.0907581
		-0.148736
		0.385891
		-0.05931
		-0.271282
		0.152814
		0.0292053
		-0.476565
		0.752709
		-0.0872375
		0.127952
		0.289925
		-0.33036
		-0.281871
		-0.893752
		-0.238024
		0.381916
		0.528976
		-0.56633
		0.552242
		0.596895
		0.395817
		-0.410393
		-0.661107
		-0.298556
		-0.155368
		0.386727
		0.562713
		0.80738
		0.387881
		-0.145032
		0.821862
		-0.415224
		0.61107
		0.319137
		0.208082
		0.311013
		0.0348195
		0.13017
		-0.380776
		0.750462
		0.121601
			0.974867
		0.358294
		0.868232
		-0.501335
		-0.305326
		0.90989
		-0.512314
		-0.784612
		-0.0355287
		-0.456192
		0.248004
		-0.946781
		-0.299978
		0.834498
		-0.150313
		0.588711
		0.926244
		-0.865573
		0.524526
		-0.570925
		0.992826
		-0.942459
		-0.717027
		0.515503
		0.662916
		0.541904
		-0.0761538
		0.964247
		-0.193925
		-0.883175
		-0.0905707
		0.825643
		-0.62073
		-0.751266
		0.746798
		-0.269712
		0.286479
		0.829675
		-0.600897
		-0.975677
		0.0709339
		0.903005
		0.00572616
		0.44167
		0.148755
		0.251232
		-0.623373
		0.478843
		0.656897
		0.659563
		-0.420682
			1.00324
		0.740958
		-0.449869
		-0.539578
		0.285563
		0.762338
		0.525871
		-0.306382
		-0.494141
		0.520027
		-0.858119
		-0.0581918
		0.379524
		0.0618424
		-0.604689
		-0.116524
		0.912998
		0.493303
		-0.215549
		0.468609
		0.871362
		0.183446
		0.199606
		0.0241118
		-0.669805
		0.646162
		0.866211
		0.642067
		-0.661335
		-0.230507
		0.624585
		-0.986915
		0.371981
		0.814618
		0.620826
		0.134318
		-0.416155
		0.936092
		0.512979
		-0.41706
		-0.501886
		-0.454262
		0.626994
		-0.229279
		-0.212431
		-0.0081402
		-0.57277
		0.847889
		0.10161
		-0.224834
		-0.945013
			0.989689
		-0.211019
		0.203698
		-0.145902
		-0.671437
		0.449458
		0.040289
		-0.821147
		-0.334091
		-0.361787
		0.144911
		-0.547595
		-0.0779195
		-0.878045
		0.0494256
		-0.486727
		-0.730598
		0.0889923
		0.303017
		0.942902
		0.227727
		-0.34079
		0.618648
		0.833222
		-0.782536
		0.151055
		0.270674
		-0.697796
		0.511805
		0.0739369
		-0.685136
		-0.979129
		-0.507017
		-0.854421
		-0.88662
		0.0860143
		-0.0889538
		-0.915492
		-0.224064
		-0.516144
		0.831005
		0.675462
		-0.660301
		-0.46187
		-0.734835
		-0.381274
		-0.540627
		0.247739
		-0.800765
		0.842213
		0.389162
			0.958451
		-0.999097
		-0.907303
		0.339513
		-0.315122
		0.464235
		0.411656
		0.787736
		0.711122
		-0.784765
		-0.994924
		0.683846
		-0.485441
		0.0763796
		0.884604
		-0.778659
		0.0503761
		-0.35517
		0.108433
		0.311892
		0.18456
		0.890736
		-0.930403
		-0.139368
		-0.445788
		0.793425
		0.826915
		0.270835
		-0.357089
		0.65394
		0.69293
		0.327721
		0.934793
		0.329413
		-0.0621164
		-0.354508
		-0.597763
		0.607095
		0.435415
		-0.112289
		-0.567783
		0.104479
		0.969354
		-0.876282
		-0.176157
		0.0125251
		-0.00851923
		-0.958522
		0.703263
		0.149099
		-0.51023
			1.01506
		-0.527828
		-0.713028
		0.256314
		-0.00621143
		-0.624758
		0.349427
		0.800437
		0.408845
		0.303901
		-0.385646
		-0.144042
		0.521507
		0.655764
		0.20606
		0.980544
		-0.893251
		0.874072
		0.67982
		-0.731071
		-0.0557411
		-0.066906
		-0.516765
		0.670699
		-0.0779287
		-0.805831
		-0.754189
		0.135335
		-0.301043
		-0.31351
		-0.365666
		0.0108472
		-0.583194
		-0.383233
		0.740462
		0.516442
		-0.754412
		-0.0171407
		0.497793
		-0.121212
		-0.688275
		0.0353126
		0.755335
		0.919973
		-0.0670586
		0.040809
		-0.736365
		-0.254698
		0.650372
		0.392682
		0.28162
			0.986752
		0.132897
		0.150113
		-0.403081
		-0.905821
		0.900298
		0.885248
		0.000238401
		-0.903065
		-0.722167
		-0.216937
		0.889759
		0.655132
		0.476762
		0.467098
		0.895209
		0.688834
		0.238257
		-0.302923
		0.435383
		-0.26295
		-0.730959
		0.511724
		-0.591954
		-0.0244871
		0.745361
		0.903888
		-0.558855
		0.430657
		0.387363
		0.283509
		0.08189
		-0.640417
		0.83739
		0.972177
		0.0106971
		-0.464557
		-0.598057
		0.843289
		0.0377408
		0.566644
		0.250854
		0.233438
		0.587091
		0.730201
		-0.305987
		-0.822355
		0.707156
		-0.931263
		0.00944763
		0.234909
			0.990236
		0.0569137
		0.93516
		-0.995792
		0.491049
		-0.646605
		0.77209
		-0.0805985
		0.0354738
		-0.30174
		-0.887753
		-0.712026
		0.802016
		-0.837655
		0.927085
		0.607592
		0.555893
		0.53075
		-0.730243
		-0.49689
		-0.283686
		0.912227
		0.903746
		-0.354809
		0.0418143
		0.831724
		-0.416479
		0.471678
		-0.798482
		-0.0569778
		-0.0864776
		0.0422446
		0.58985
		0.273333
		-0.0672936
		-0.110621
		-0.789525
		0.356796
		0.410106
		-0.979609
		0.228499
		0.428618
		-0.258625
		-0.325038
		-0.845535
		-0.0028104
		-0.0109876
		0.772363
		0.0607962
		0.785112
		-0.38261
			0.972943
		-0.626088
		-0.434237
		-0.259367
		-0.448773
		-0.116322
		0.513684
		0.232294
		0.129269
		0.373732
		0.142436
		0.695997
		-0.590548
		0.436998
		0.999394
		-0.9594
		-0.307897
		-0.479291
		0.337921
		-0.00906919
		0.327968
		0.309351
		-0.744358
		-0.868931
		-0.306538
		-0.345204
		-0.568476
		0.430472
		-0.157268
		0.300177
		0.872152
		0.998646
		-0.812244
		0.233905
		-0.31393
		0.857102
		-0.0854674
		-0.898026
		-0.603832
		-0.394367
		0.486096
		0.0536628
		-0.891384
		0.42744
		-0.200473
		-0.830991
		0.138116
		0.422715
		0.230269
		0.404497
		-0.940533
			0.972752
		-0.634579
		-0.150421
		-0.123874
		-0.932796
		-0.151412
		-0.529514
		0.186724
		-0.457405
		-0.419701
		-0.395161
		-0.0339314
		-0.87654
		-0.778933
		-0.550685
		-0.139457
		-0.956349
		-0.00895813
		-0.548296
		-0.648357
		-0.780949
		0.124971
		-0.336073
		0.724783
		0.614988
		-0.0419559
		-0.837743
		-0.0843053
		-0.551539
		-0.962004
		0.660971
		-0.242629
		0.0235667
		0.821808
		0.656639
		-0.34579
		0.534073
		0.849371
		0.890152
		0.884215
		0.714882
		-0.210864
		0.642572
		0.437884
		-0.597969
		0.178641
		0.988524
		0.793948
		0.0443962
		0.0479821
		-0.227322
			0.943994
		0.451405
		-0.980809
		-0.83845
		-0.312361
		0.567798
		0.648495
		-0.815158
		0.0246941
		0.0757528
		0.889242
		-0.475574
		-0.865983
		-0.39815
		-0.388944
		-0.0321796
		0.308052
		-0.643771
		0.954436
		0.812755
		0.426174
		0.410901
		0.0207297
		0.75148
		0.250908
		0.190803
		0.847627
		0.823954
		-0.484784
		0.688963
		0.931128
		-0.712639
		0.501317
		0.106935
		0.310748
		0.59894
		-0.0796298
		0.474017
		-0.918708
		-0.361965
		0.692337
		-0.775176
		0.705496
		-0.973843
		0.814931
		0.929688
		-0.428323
		-0.310101
		0.401941
		0.577403
		0.0925843
			1.00669
		0.566649
		-0.223417
		0.0496997
		-0.116684
		-0.351402
		-0.0299335
		-0.604209
		-0.728482
		0.44615
		-0.234597
		-0.23754
		-0.775921
		-0.58031
		-0.755241
		-0.417696
		-0.684788
		0.459903
		0.566924
		0.158512
		-0.771838
		-0.231406
		-0.419712
		0.31177
		0.15157
		0.996052
		-0.0359493
		-0.61394
		-0.660499
		0.257655
		0.727556
		0.637297
		0.483922
		-0.575984
		-0.189388
		-0.161169
		0.313609
		0.591697
		-0.902725
		0.0495733
		0.969864
		0.514572
		-0.496413
		-0.882744
		0.112253
		-0.645682
		-0.108104
		0.382698
		0.744654
		-0.908225
		0.834048
			0.98976
		0.278575
		-0.178577
		-0.0969082
		-0.739249
		0.449915
		0.656195
		-0.934796
		-0.0627097
		-0.575232
		-0.142537
		-0.614581
		0.978311
		0.734711
		-0.993764
		0.995431
		0.351686
		0.897779
		0.972306
		-0.549734
		-0.662776
		0.226501
		0.786503
		-0.998942
		-0.324943
		0.581032
		0.386462
		-0.752397
		0.119521
		-0.576721
		-0.293963
		-0.692002
		-0.715754
		0.121206
		-0.793502
		-0.948099
		0.251467
		0.477093
		0.504001
		-0.587944
		-0.789383
		0.469379
		-0.187853
		-0.130405
		0.956417
		-0.176573
		-0.722392
		-0.973385
		0.320578
		0.938758
		-0.953997
			1.00773
	}
	{
	15
		0.998517
		0.187187
		-0.524981
		0.203182
		0.11977
		0.189419
		-0.975816
		0.287501
		0.718163
		-0.116695
		-0.334758
		0.111656
		0.0531867
		-0.83612
		-0.217161
		-0.468249
		0.040007
		-0.815316
		0.749956
		0.36302
		0.2863
		-0.96779
		0.547792
		-0.811846
		-0.105295
		0.736331
		0.784623
		-0.599676
		-0.318476
		-0.288995
			0.999076
		0.536552
		-0.731768
		-0.368003
		-0.70863
		-0.670941
		-0.82409
		0.28274
		-0.0712317
		-0.0633244
		-0.0706238
		0.547989
		0.964066
		-0.172038
		0.455142
		0.720247
		-0.877423
		0.480286
		0.168938
		0.599625
		0.863324
		-0.12195
		-0.532819
		0.357219
		0.0912666
		0.737611
		-0.279179
		0.971384
		0.128989
		0.0893866
		0.0953676
			0.970272
		-0.408152
		-0.532799
		-0.932849
		-0.0207596
		0.927025
		0.442364
		-0.88081
		0.273549
		0.343658
		-0.940042
		-0.335502
		0.480412
		0.983244
		-0.50323
		0.360335
		-0.403853
		0.901463
		0.6807
		-0.152683
		0.195192
		0.156261
		-0.135069
		-0.0447801
		-0.210028
		0.495027
		-0.0366658
		0.624327
		0.444624
		-0.0391098
		-0.750795
			0.984586
		0.366594
		0.457725
		-0.575018
		-0.271912
		0.79253
		-0.983606
		-0.137996
		-0.507142
		-0.070661
		0.722386
		-0.523385
		0.622441
		-0.656853
		-0.93506
		-0.657046
		-0.437826
		-0.394719
		-0.997503
		0.574262
		0.289207
		0.542882
		0.448559
		-0.724894
		-0.815578
		-0.920446
		-0.457121
		0.222758
		-0.864181
		0.983345
		0.39687
			0.997189
		0.940102
		0.0956557
		-0.331831
		0.342101
		0.347737
		-0.327374
		0.669836
		-0.240576
		0.406384
		0.171578
		0.668976
		-0.00517812
		-0.978445
		0.84272
		0.986396
		0.228299
		0.718907
		-0.717113
		-0.171752
		0.895293
		-0.0300073
		-0.00699452
		-0.011695
		0.862039
		-0.305826
		-0.348514
		-0.892985
		-0.159015
		-0.991613
		-0.469786
			0.982347
		-0.918276
		-0.23685
		-0.57276
		0.910215
		-0.0136189
		0.101462
		-0.240881
		-0.39438
		0.653153
		-0.717367
		0.308097
		0.468962
		0.20788
		0.536727
		0.832717
		0.929728
		-0.66266
		0.187931
		0.876531
		0.637931
		0.718278
		-0.284537
		-0.27653
		0.266567
		0.507617
		-0.64993
		0.666412
		0.112851
		-0.303431
		0.179839
			1.04466
		0.740613
		-0.220848
		-0.926651
		0.565178
		0.143835
		-0.095649
		-0.632293
		0.72811
		-0.531285
		0.632816
		-0.780956
		0.0446873
		0.385979
		0.344108
		-0.894778
		-0.919045
		0.868096
		-0.842218
		0.104036
		0.564057
		-0.456708
		0.031438
		0.326909
		0.837461
		0.716194
		-0.984718
		0.941721
		-0.688611
		0.685283
		-0.183343
			0.995326
		0.198809
		0.695609
		-0.341091
		-0.251357
		-0.0716047
		0.128829
		-0.820923
		-0.728818
		-0.55698
		-0.296957
		-0.552813
		-0.800407
		-0.014358
		0.193204
		0.657523
		-0.177111
		-0.496251
		-0.991308
		-0.294215
		0.917876
		-0.375777
		0.632117
		-0.78614
		-0.216682
		0.0879376
		-0.0672894
		0.119015
		-0.801223
		-0.587599
		-0.443984
			0.976511
		-0.427833
		-0.405964
		0.0982474
		-0.054004
		0.322405
		0.282405
		-0.340188
		-0.349844
		-0.0835307
		-0.599566
		-0.39458
		0.932209
		0.0791793
		0.670296
		-0.830485
		-0.503101
		0.80109
		-0.965203
		-0.0501221
		0.241047
		-0.147664
		0.673186
		-0.910502
		-0.895488
		0.0351827
		0.181878
		-0.539981
		-0.641167
		-0.472296
		0.499623
			1.0343
		0.444704
		0.502958
		0.456199
		0.656765
		0.390125
		-0.872711
		-0.452746
		-0.54699
		0.847497
		-0.326736
		-0.974252
		0.637246
		-0.790479
		-0.898296
		0.121119
		-0.385452
		-0.229199
		-0.985639
		-0.540548
		0.178291
		0.186138
		-0.68499
		0.405011
		-0.186345
		0.556
		0.50141
		-0.67449
		-0.171226
		-0.528482
		0.0178609
			0.998647
		0.762722
		0.202771
		-0.351337
		0.293564
		-0.262058
		0.236703
		-0.171918
		0.150684
		0.543127
		0.1443
		0.81841
		0.334372
		0.607566
		-0.514008
		-0.578251
		-0.583236
		0.40908
		-0.503268
		-0.0405832
		-0.214185
		0.698941
		-0.612823
		0.0557136
		-0.789433
		0.513444
		0.990931
		0.953815
		0.691892
		-0.109904
		-0.944566
			1.07028
		-0.671873
		-0.672429
		-0.118238
		0.308503
		-0.829825
		0.420475
		-0.83027
		-0.426849
		-0.594834
		-0.715839
		0.725588
		0.504855
		-0.148285
		-0.617669
		-0.149512
		0.593691
		-0.952426
		-0.413148
		0.362643
		0.834439
		0.112268
		-0.00167028
		-0.0468658
		-0.935669
		-0.829476
		-0.33739
		0.0139887
		-0.211423
		-0.146026
		-0.70663
			0.972026
		-0.491893
		0.469482
		-0.123619
		-0.66441
		-0.610615
		-0.171222
		0.25341
		0.0668377
		-0.231838
		-0.0217765
		-0.50135
		-0.523772
		-0.0948085
		-0.311432
		-0.828498
		0.0818888
		-0.431278
		0.378321
		0.876384
		-0.0395101
		-0.451859
		-0.549373
		-0.0205344
		-0.344891
		-0.0415689
		-0.502588
		-0.814997
		0.744656
		0.760195
		0.75664
			0.976848
		-0.194213
		-0.752336
		-0.496845
		0.635462
		-0.453334
		0.586891
		0.119361
		-1
		0.815374
		-0.140156
		0.0773202
		0.883033
		0.448181
		0.0459398
		0.202876
		-0.159265
		0.453121
		-0.687314
		-0.469828
		-0.460696
		-0.493161
		-0.708967
		-0.106641
		-0.0751656
		-0.205069
		0.14241
		0.743463
		-0.95073
		-0.883111
		-0.648483
			0.99152
		-0.900654
		-0.242911
		0.0775033
		-0.76444
		0.713156
		0.287178
		0.995541
		0.20574
		-0.952388
		-0.840688
		-0.446396
		0.288254
		-0.39448
		-0.320247
		0.359756
		-0.781435
		-0.0051866
		0.269816
		0.616949
		-0.519699
		-0.87632
		0.740026
		-0.820702
		-0.989893
		-0.371191
		0.142007
		0.677009
		0.634346
		-0.393256
		0.331429
			1.00633
	}
	{
	2
		0.0326039
		0.596787
		-0.518228
		-0.380382
		0.761415
		-0.521412
		0.683207
		0.258287
		0.384319
		-0.0306946
		-0.315544
		0.580862
		0.0199289
		0.984403
		-0.613009
			1.00842
		-0.0874365
		-0.531348
		-0.518422
		0.00100255
		-0.567843
		0.949455
		0.518227
		0.841756
		0.936759
		0.240182
		-0.740194
		-0.66568
		0.889547
		0.721231
		-0.235262
			1.02325
	}
}
