{
5
	{
	17
		1
			1
		1
			1
		1
			1
		1
			1
		1
			1
		1
			1
		1
			1
		1
			1
		1
			1
		1
			1
		1
			1
		1
			1
		1
			1
		1
			1
		1
			1
		1
			1
		1
			1
	}
	{
	50
		0.958629
		-0.403849
		0.75435
		-0.542362
		0.197009
		0.652695
		-0.544459
		-0.0787424
		0.973815
		0.704969
		-0.0789158
		-0.818501
		-0.40594
		0.878827
		-0.989378
		-0.767216
		-0.0538483
			0.99463
		0.114497
		-0.774502
		0.154291
		0.742964
		-0.273767
		0.0549396
		-0.985546
		-0.135535
		0.358148
		0.326836
		-0.461131
		-0.346848
		0.0437472
		-0.827359
		0.451561
		-0.0174746
		0.0847287
			0.989868
		-0.052117
		-0.321275
		-0.79829
		0.0743279
		-0.163122
		0.214842
		0.72116
		0.367656
		0.59256
		0.785268
		-0.280428
		0.753565
		0.955056
		0.394634
		-0.850477
		-0.238467
		-0.208668
			1.0087
		0.476123
		-0.485348
		-0.216059
		0.649244
		0.808273
		-0.61894
		0.979972
		-0.151031
		0.972686
		-0.826073
		-0.885946
		-0.550494
		-0.558324
		0.747607
		-0.346399
		0.773755
		-0.0416661
			1.01923
		0.706224
		-0.22213
		-0.566984
		-0.0942777
		0.117843
		-0.362077
		0.809046
		-0.720984
		-0.534366
		-0.560587
		-0.330459
		-0.856461
		-0.391959
		-0.303231
		-0.344844
		0.629253
		0.242559
			1.01546
		0.561734
		-0.599376
		0.366219
		0.316816
		-0.594904
		-0.322896
		0.879208
		-0.29254
		-0.760274
		0.707392
		-0.455985
		0.360351
		-0.962897
		0.682387
		-0.995785
		0.343418
		-0.547434
			0.984785
		-0.0792569
		-0.639643
		-0.39098
		0.951578
		0.542613
		0.00510785
		-0.940791
		-0.441944
		-0.655298
		0.650816
		-0.666716
		0.721312
		-0.576848
		0.0259186
		-0.771789
		-0.914683
		0.347397
			1.01387
		-0.537605
		0.244917
		-0.630761
		-0.774431
		0.240742
		-0.220198
		0.531631
		0.823207
		0.505247
		0.0232726
		0.50828
		-0.895228
		-0.734295
		0.0173527
		-0.620732
		0.498829
		-0.603131
			1.00006
		-0.245369
		0.959802
		0.295013
		0.589048
		-0.330551
		-0.903778
		-0.315732
		0.264773
		0.342063
		-0.72734
		0.944973
		-0.851566
		0.595192
		0.05203
		0.642275
		-0.200039
		-0.649541
			1.00604
		0.833422
		0.510626
		-0.873166
		0.320422
		0.86882
		-0.0552451
		0.108114
		-0.615435
		-0.884103
		-0.27516
		0.990979
		-0.913232
		-0.696625
		0.181935
		-0.852065
		-0.0837949
		0.332881
			0.993983
		-0.834773
		-0.238737
		0.623431
		0.401252
		-0.159836
		-0.23729
		-0.605057
		-0.35053
		-0.87088
		-0.983858
		-0.643135
		0.844746
		-0.238319
		-0.295557
		-0.656718
		0.945432
		-0.296377
			0.995472
		-0.686938
		-0.277845
		0.292567
		-0.561643
		-0.170467
		-0.178493
		-0.37649
		0.189029
		0.620402
		-0.128221
		0.659681
		-0.356066
		0.24927
		0.718777
		0.803961
		0.828968
		-0.700322
			1.00421
		0.688618
		0.115494
		-0.488852
		-0.828177
		-0.838657
		-0.000265873
		-0.936889
		-0.160134
		0.528547
		0.260872
		0.155548
		-0.592902
		0.781257
		0.401083
		0.315772
		0.635745
		-0.65307
			0.999594
		-0.976718
		-0.18435
		0.261141
		-0.8895
		-0.413224
		0.0266214
		-0.536462
		-0.156082
		-0.221359
		-0.813443
		-0.860226
		0.225875
		0.790437
		-0.0921992
		-0.240803
		-0.166207
		0.552223
			1.00813
		-0.154964
		-0.209578
		0.61368
		-0.718819
		-0.373575
		-0.28522
		0.251123
		-0.810345
		0.764521
		-0.596803
		-0.477984
		-0.598
		0.675249
		0.649183
		-0.604161
		0.395532
		-0.127413
			0.993142
		0.637294
		-0.387204
		-0.123607
		-0.182513
		-0.622422
		0.317854
		0.20356
		0.285243
		-0.880374
		0.262706
		-0.229115
		0.21306
		0.185846
		0.578145
		0.522552
		-0.77017
		-0.829945
			1.00286
		-0.347875
		-0.909862
		-0.269649
		-0.383672
		-0.559073
		0.753174
		0.521565
		-0.379283
		0.649581
		-0.961943
		0.523048
		-0.0165695
		-0.131313
		0.108592
		0.917934
		0.943681
		0.873656
			0.998008
		0.0346323
		0.403517
		-0.0926569
		-0.0415815
		-0.944905
		0.787848
		0.162746
		-0.313464
		0.877052
		0.0275362
		0.656079
		-0.507795
		0.168725
		-0.727999
		0.539928
		-0.778656
		-0.385644
			1.01062
		-0.558848
		-0.445321
		-0.593652
		0.27848
		-0.289133
		0.575938
		0.466043
		-0.156708
		-0.358001
		-0.105709
		0.564837
		0.959861
		-0.690575
		0.62538
		-0.892136
		-0.255853
		-0.0425008
			1.00189
		0.641685
		0.0909315
		-0.460581
		-0.700312
		-0.142738
		-0.701443
		0.750406
		0.850465
		-0.983809
		-0.126475
		-0.745706
		-0.911827
		-0.205924
		0.252139
		0.242814
		-0.619804
		0.509589
			1.00166
		-0.389316
		0.124813
		-0.687283
		-0.289955
		-0.23315
		0.395453
		-0.387345
		-0.521652
		-0.474743
		-0.480631
		-0.313816
		-0.912208
		-0.263176
		0.951956
		-0.625533
		-0.231428
		0.431191
			1.01852
		0.884478
		0.296431
		-0.914135
		0.357417
		-0.572243
		-0.328253
		-0.0261604
		0.297349
		0.568857
		-0.772031
		0.788115
		-0.906677
		0.955654
		-0.486907
		0.511511
		0.00807223
		-0.608275
			1.00581
		0.0443076
		0.630665
		0.59432
		0.189348
		-0.840727
		0.584173
		-0.25126
		-0.709311
		-0.630615
		-0.815323
		-0.316469
		-0.703329
		-0.0835251
		-0.152516
		0.852572
		-0.763148
		0.0839817
			0.999389
		-0.130824
		0.78502
		-0.427243
		0.734229
		-0.0905307
		0.876327
		0.517644
		0.360217
		-0.407032
		-0.540659
		0.895901
		0.814547
		-0.45922
		-0.432174
		-0.784698
		0.468196
		0.693209
			1.00412
		-0.537851
		0.940997
		-0.484
		-0.44818
		-0.599195
		-0.0326453
		-0.288736
		-0.458676
		0.295517
		-0.953548
		-0.338848
		0.369296
		0.10328
		-0.322578
		0.839161
		-0.323786
		-0.919087
			0.98386
		-0.66701
		0.083127
		-0.897915
		0.498655
		-0.977902
		0.6333
		-0.724892
		-0.0527413
		-0.483384
		-0.516087
		0.226571
		-0.769899
		-0.419775
		-0.130179
		0.596966
		0.0777624
		0.570916
			1.0021
		0.975208
		-0.573687
		0.123571
		-0.503979
		0.190921
		0.219223
		0.76483
		0.5946
		-0.741112
		-0.720101
		0.685141
		0.592689
		-0.577057
		-0.589455
		0.359163
		0.479339
		-0.524888
			0.997427
		-0.170794
		0.840614
		-0.547556
		0.476092
		-0.0462997
		0.619709
		-0.0997214
		-0.199638
		0.848411
		-0.990998
		-0.696551
		0.10266
		0.607759
		1
		-0.611976
		-0.316024
		-0.132996
			0.997205
		0.535572
		-0.70175
		-0.101995
		0.0018332
		-0.14705
		-0.750258
		-0.696235
		-0.897199
		-0.0192204
		-0.255688
		-0.395971
		0.722525
		0.93694
		-0.850022
		-0.113202
		-0.999277
		0.38337
			0.99481
		-0.705884
		-0.154299
		-0.496101
		-0.960443
		0.660123
		-0.112152
		0.297059
		-0.183268
		-0.46121
		0.564228
		-0.222214
		-0.227685
		-0.205747
		0.592428
		-0.162699
		0.58271
		0.0908976
			1.00294
		-0.819352
		0.873066
		0.390742
		-0.149491
		-0.802613
		-0.852068
		0.242636
		0.0538025
		-0.168384
		0.354604
		-0.729505
		-0.796086
		-0.416904
		-0.344179
		-0.646482
		-0.675362
		0.880834
			0.992722
		0.47656
		-0.832077
		-0.790331
		0.141403
		0.642579
		0.558001
		-0.921951
		0.229177
		0.696827
		-0.036787
		-0.992598
		0.398098
		0.190597
		-0.315176
		-0.80244
		0.471463
		0.384002
			1.01018
		-0.335659
		0.0255745
		-0.761238
		-0.229038
		0.584201
		0.827525
		-0.0165279
		-0.780652
		-0.769368
		-0.729212
		0.960452
		-0.651728
		0.177017
		0.889348
		0.813178
		-0.0978122
		-0.320555
			0.977352
		0.119446
		-0.271682
		0.751741
		0.72299
		-0.219257
		0.600185
		-0.438243
		-0.0757422
		-0.791421
		0.376549
		-0.0121273
		-0.379885
		-0.87004
		0.214672
		-0.523833
		0.408849
		0.933836
			1.00874
		0.0251238
		0.171754
		0.0593842
		-0.218061
		-0.323927
		0.660006
		0.191376
		0.779377
		-0.259859
		-0.68057
		-0.372556
		0.547515
		-0.441042
		-0.382529
		0.0559008
		0.677967
		-0.143933
			0.995053
		-0.369179
		0.795357
		0.540186
		-0.256435
		0.401661
		-0.371612
		-0.505465
		0.0632008
		0.731018
		-0.777825
		-0.575202
		-0.929517
		0.749383
		-0.725167
		-0.616711
		-0.834111
		0.443789
			0.994088
		-0.0828877
		-0.450816
		-0.712035
		0.975796
		-0.758882
		0.343829
		0.609053
		0.28361
		-0.16184
		0.481053
		-0.396555
		-0.128119
		-0.667363
		0.734148
		-0.0922925
		0.418458
		0.611595
			0.994721
		0.0351906
		-0.592251
		-0.539522
		-0.0333527
		-0.777562
		0.920305
		-0.366545
		0.816107
		-0.695634
		-0.0203116
		-0.818595
		-0.438436
		0.722221
		-0.950665
		0.744115
		-0.0437253
		0.448967
			1.0103
		0.62025
		-0.0288334
		-0.547152
		0.784167
		0.457656
		-0.505648
		-0.145364
		0.458013
		0.360945
		-0.714675
		-0.315585
		0.502783
		-0.0917694
		0.799933
		-0.117147
		0.2902
		-0.454178
			0.998587
		0.609945
		-0.894137
		-0.551218
		-0.417588
		-0.557889
		-0.53666
		-0.50922
		0.268344
		0.494476
		0.522644
		0.643392
		-0.212968
		-0.280204
		-0.549479
		-0.051167
		-0.672508
		0.630306
			1.01264
		0.989114
		0.209135
		0.122751
		0.992897
		0.764587
		0.31721
		-0.337584
		0.702115
		0.951753
		-0.520118
		0.875551
		0.440342
		0.557493
		-0.0708453
		-0.947206
		-0.328552
		-0.568229
			1.01765
		0.486711
		-0.632282
		-0.475361
		0.668853
		-0.695828
		0.913207
		0.61407
		-0.00505674
		0.513325
		0.57341
		-0.640333
		0.718275
		-0.581825
		-0.961994
		0.779184
		0.141114
		0.463524
			0.999251
		0.295662
		0.914211
		0.24668
		0.342869
		-0.267948
		-4.68753e-05
		-0.121445
		0.57044
		0.893647
		0.284859
		0.869022
		0.00230406
		0.702644
		-0.273531
		0.0352634
		-0.199701
		-0.405571
			1.00511
		0.0157069
		-0.0930334
		-0.141844
		0.974767
		0.741531
		0.146054
		-0.442265
		0.163185
		0.808293
		-0.531578
		0.162268
		0.947476
		-0.1154
		0.569923
		0.775883
		0.23395
		0.417325
			1.00179
		-0.397558
		0.970403
		-0.807582
		0.238788
		-0.269179
		0.851943
		-0.294683
		0.936313
		-0.824841
		0.324037
		-0.0371222
		-0.837645
		0.528512
		0.117352
		-0.206604
		-0.342789
		0.812094
			0.994161
		-0.759174
		0.136246
		-0.325917
		0.735541
		-0.0397764
		0.870676
		-0.0610121
		-0.336128
		-0.907413
		0.935002
		-0.375427
		-0.691826
		-0.990963
		0.504043
		-0.117792
		-0.769108
		-0.566814
			0.989525
		0.0391148
		0.616081
		0.832452
		0.603938
		0.494463
		0.646401
		0.0483361
		0.666015
		-0.158673
		-0.791489
		0.370639
		0.614097
		-0.874038
		-0.265825
		-0.368881
		0.946144
		-0.442995
			0.996356
		0.4906
		0.879643
		-0.504123
		-0.722653
		0.689288
		0.291655
		-0.482311
		0.0507269
		-0.337597
		0.694391
		-0.996344
		0.807922
		0.522495
		0.454675
		0.0393836
		0.324641
		0.108708
			1.01795
		-0.945907
		0.046272
		-0.0883131
		0.331031
		0.608051
		0.919355
		0.870284
		0.92542
		-0.064838
		0.212971
		-0.497924
		0.535465
		0.114052
		-0.846395
		0.697423
		-0.778022
		0.74874
			1.00113
		-0.699802
		-0.732466
		-0.751336
		0.831781
		0.101758
		0.536838
		0.0346496
		0.554537
		-0.398523
		0.545659
		0.566432
		0.374522
		0.429854
		0.937222
		-0.751889
		0.270335
		0.688829
			1.00905
	}
	{
	30
		0.227541
		0.570579
		0.977293
		0.13136
		0.682208
		-0.196186
		0.603467
		-0.982482
		-0.439993
		-0.432443
		0.0469917
		-0.712618
		-0.27946
		-0.813443
		-0.539157
		0.884348
		-0.174889
		-0.687545
		-0.474111
		0.0622616
		0.0834044
		0.594265
		-0.104182
		-0.506995
		0.110421
		0.178582
		-0.356424
		-0.306848
		-0.0506488
		0.297511
		0.977105
		-0.39511
		-0.0176595
		-0.194627
		-0.297432
		-0.155251
		0.388601
		-0.54654
		0.0028603
		-0.467546
		0.893101
		-0.359171
		0.729427
		0.350499
		0.982154
		-0.830989
		-0.331153
		0.948707
		0.480155
		0.847302
			0.999498
		-0.106349
		0.503818
		0.956866
		-0.961954
		-0.739015
		-0.578623
		0.0122177
		0.814671
		0.840659
		-0.173125
		-0.55365
		0.70601
		-0.856497
		0.547985
		-0.163412
		0.880352
		-0.85513
		-0.570353
		-0.03322
		0.177844
		-0.36779
		0.253592
		-0.48792
		-0.287954
		-0.22122
		0.980787
		0.818626
		0.440652
		0.70787
		-0.670435
		0.705413
		0.536359
		-0.679544
		-0.447459
		0.799423
		-0.325539
		0.193265
		0.479099
		-0.602459
		-0.46482
		0.767457
		-0.391541
		0.51183
		0.201529
		0.361276
		0.248512
		0.0206479
		0.561113
		0.481043
		0.713004
			1.00905
		0.134174
		0.00623708
		0.646776
		-0.173909
		-0.316006
		-0.873013
		-0.236386
		0.348545
		-0.918918
		0.56778
		-0.511796
		-0.962566
		-0.306872
		0.837315
		0.42626
		0.34286
		0.797586
		0.226588
		0.992445
		-0.416376
		-0.423977
		-0.771866
		0.879967
		-0.0901382
		-0.929835
		0.731581
		0.261636
		0.546162
		0.0999255
		-0.60728
		-0.225315
		0.831374
		0.561303
		-0.427448
		0.973075
		0.396472
		0.465502
		0.861263
		0.86004
		0.775133
		0.709379
		0.807298
		-0.304896
		0.809949
		0.927731
		-0.339959
		0.111616
		0.255076
		0.277455
		-0.876862
			0.995849
		0.607009
		-0.60029
		-0.215489
		-0.85462
		-0.207714
		0.109227
		-0.947303
		0.857297
		0.160985
		0.688336
		0.033321
		-0.862796
		-0.607119
		-0.993142
		0.689204
		0.134753
		-0.960286
		-0.369286
		0.0868277
		-0.0932718
		0.146537
		0.450174
		0.56536
		-0.889623
		0.76035
		0.261007
		-0.17964
		0.598127
		0.850952
		0.334681
		0.620582
		0.051653
		-0.786491
		0.850087
		-0.146183
		-0.138197
		0.383401
		0.153487
		-0.154244
		0.150186
		0.23738
		0.506615
		0.662658
		-0.831544
		0.961677
		0.4748
		0.857021
		-0.300009
		-0.401049
		-0.436588
			1.02036
		0.96796
		0.519155
		-0.599672
		0.27487
		-0.0938718
		0.132679
		-0.932923
		-0.678763
		0.00575618
		-0.36367
		-0.205725
		0.363344
		-0.623417
		0.0834825
		0.98512
		-0.105173
		0.507702
		0.146143
		0.808519
		-0.380523
		-0.71539
		-0.422972
		-0.0250178
		-0.000954962
		0.79712
		-0.957224
		-0.484113
		0.584785
		-0.195731
		-0.368842
		0.332649
		0.749242
		-0.0360787
		-0.174591
		-0.510383
		-0.650809
		-0.00307636
		-0.0620643
		0.304447
		0.723682
		0.839905
		0.666968
		-0.269535
		-0.0418456
		-0.51124
		0.519181
		0.597119
		-0.25567
		-0.718671
		0.781355
			0.99158
		0.729151
		0.595108
		0.879141
		-0.17362
		-0.331437
		0.613199
		0.696714
		0.437496
		-0.382322
		-0.487779
		0.246166
		-0.19857
		0.307328
		-0.328441
		-0.514765
		0.781955
		-0.133428
		0.0860153
		0.292012
		-0.00582865
		0.532496
		0.663471
		-0.0650122
		-0.515219
		-0.898332
		0.706231
		0.321469
		0.333924
		0.316681
		-0.76193
		0.0274983
		-0.346151
		0.275266
		0.214323
		-0.278472
		-0.489042
		0.881185
		-0.618716
		0.910605
		0.812305
		0.897203
		0.38984
		0.759672
		0.938083
		0.576244
		-0.605898
		0.0339877
		0.613003
		0.271552
		0.131038
			1.01952
		-0.177891
		0.274684
		0.342304
		-0.209455
		-0.902444
		-0.116619
		0.219242
		-0.636914
		-0.803347
		-0.680026
		0.596932
		0.713938
		0.476215
		0.784165
		0.681195
		-0.749445
		0.288367
		-0.502908
		0.771426
		-0.456187
		0.0348465
		0.71117
		-0.283288
		-0.561843
		-0.208501
		0.480656
		0.101387
		-0.74022
		0.898643
		-0.272183
		0.466282
		0.872054
		0.8308
		0.127612
		-0.71415
		0.013465
		-0.988433
		0.283428
		-0.697322
		0.974329
		-0.0717263
		-0.194591
		-0.856122
		0.34082
		-0.932876
		-0.717786
		0.115313
		0.888549
		1
		-0.621837
			0.999945
		-0.282392
		-0.0810086
		-0.265549
		0.557497
		-0.11273
		0.398088
		0.925203
		-0.47429
		-0.845388
		-0.353568
		-0.0196206
		0.168381
		-0.419187
		-0.665631
		-0.060698
		-0.666782
		0.122494
		-0.201478
		-0.433766
		-0.861689
		-0.397615
		-0.625036
		-0.930753
		1
		0.49169
		0.716814
		0.0279153
		-0.826944
		0.635202
		-0.625811
		0.411609
		0.812653
		-0.371239
		0.97232
		0.580447
		-0.383111
		0.144576
		0.499123
		-0.460054
		0.235273
		0.22939
		0.302465
		-0.905681
		-0.894726
		0.265721
		0.727102
		0.650714
		-0.438581
		0.160705
		-0.23771
			0.993368
		-0.826057
		0.489302
		0.35397
		-0.17174
		0.0567694
		0.918989
		-1
		0.278457
		0.9722
		0.884946
		0.781084
		0.559807
		-0.168431
		0.233198
		0.89157
		-0.432046
		0.57645
		0.512031
		-0.625874
		-0.300681
		0.769425
		0.786754
		-0.601073
		0.325681
		-0.431142
		0.150733
		0.751921
		-0.887974
		-0.828905
		-0.603802
		-0.89213
		-0.84892
		-0.202867
		0.133951
		0.131913
		-0.783467
		0.382575
		0.690089
		-0.447251
		-0.125881
		-0.198088
		-0.116061
		-0.656434
		-0.802702
		0.160692
		0.871503
		0.000307077
		-0.881508
		-0.680603
		-0.454088
			0.994257
		-0.185868
		-0.32458
		-0.139302
		-0.381943
		-0.0711385
		0.79442
		-0.848876
		-0.870147
		-0.386166
		0.972779
		-0.753407
		-0.0180345
		0.154114
		0.572626
		0.738067
		0.161306
		-0.201158
		0.468038
		0.0208341
		0.484167
		-0.500359
		-0.426367
		-0.904299
		0.394111
		-0.269516
		-0.850499
		0.949996
		0.709189
		-0.809039
		-0.522735
		-0.655243
		0.59019
		0.379935
		0.685577
		0.779762
		-0.0792761
		0.767178
		-0.499677
		-0.0249825
		0.0966199
		-0.0932893
		0.473852
		-0.266725
		-0.794175
		0.903517
		0.460633
		0.731996
		-0.924887
		0.777526
		-0.13471
			1.00265
		0.698842
		0.960126
		0.478399
		-0.593038
		0.564411
		0.331801
		0.0620952
		0.729333
		0.372444
		-0.684348
		-0.501108
		-0.0675827
		0.580745
		-0.121678
		0.938337
		0.949159
		-0.696524
		-0.775615
		0.579934
		0.53033
		-0.958835
		0.449931
		0.327764
		-0.277347
		0.854341
		-0.40765
		0.447376
		-0.495762
		0.393722
		0.661273
		0.457382
		0.362931
		-0.446682
		-0.791388
		0.439988
		-0.771207
		-0.202513
		-0.382321
		0.243876
		0.376688
		-0.970162
		-0.354063
		0.607215
		-0.551149
		-0.738811
		0.208352
		0.0358022
		-0.619089
		-0.846626
		-0.343147
			1.00589
		-0.423809
		-0.00478776
		0.963645
		-0.43815
		-0.749267
		0.846331
		0.229633
		0.00726121
		0.0179514
		-0.279764
		-0.126949
		0.498258
		0.336243
		-0.38765
		-0.59922
		-0.0147162
		0.468331
		0.587282
		-0.622202
		-0.847541
		-0.47729
		-0.288318
		-0.690681
		0.91233
		0.585443
		0.118776
		-0.587772
		0.371815
		0.298648
		-0.94886
		-0.353794
		0.637788
		-0.584396
		0.530597
		-0.394911
		-0.793047
		0.878273
		-0.0828181
		0.9979
		0.68766
		-0.953607
		-0.00577288
		0.341779
		0.655481
		-0.802142
		-0.370133
		0.353552
		0.0530677
		0.643669
		0.0978924
			0.982785
		0.446336
		-0.255489
		0.714819
		0.760836
		-0.609426
		0.302308
		-0.575876
		0.419803
		0.389633
		0.210951
		0.672196
		0.498712
		0.939908
		-0.928387
		-0.682374
		0.233101
		-0.899451
		-0.342669
		-0.662287
		-0.330287
		0.498579
		0.412811
		-0.90805
		-0.504302
		-0.804229
		-0.556657
		-0.27533
		0.587402
		0.45748
		0.409437
		0.131547
		0.0758439
		0.26655
		-0.106964
		0.615884
		-0.640622
		0.223157
		0.0181941
		-0.00432599
		0.851029
		-0.255629
		-0.496267
		-0.557169
		-0.96951
		-0.0320476
		0.50775
		0.419869
		0.775089
		-0.925722
		0.810657
			1.00379
		0.769002
		0.242814
		-0.774096
		0.228072
		-0.744792
		0.215113
		-0.826767
		-0.750551
		-0.426067
		0.414998
		0.201469
		-0.666438
		0.298061
		0.590475
		-0.422683
		0.828689
		-0.109136
		0.613653
		0.102468
		-0.0679652
		-0.707517
		-0.652205
		0.923405
		0.0681668
		-0.359341
		-0.527269
		0.453257
		0.426557
		-0.275219
		-0.655527
		-0.461674
		-0.615186
		-0.899614
		-0.211388
		-0.327355
		0.499966
		0.238711
		-0.76409
		-0.079846
		-0.550481
		0.804079
		-0.740743
		0.160694
		0.870399
		-0.00244719
		-0.599837
		0.867348
		-0.750661
		0.718302
		0.769699
			0.998042
		0.286683
		-0.703082
		0.453024
		0.216972
		-0.910814
		-0.933307
		-0.839759
		-0.922497
		-0.569722
		-0.970999
		0.561999
		-0.61356
		0.516446
		0.618203
		-0.246059
		-0.787897
		0.537761
		-0.507733
		0.981562
		-0.350244
		0.272765
		0.07823
		-0.232052
		0.809337
		-0.846878
		-0.803108
		0.642312
		0.200773
		-0.858525
		0.517598
		0.142004
		-0.258758
		0.77203
		0.63732
		-0.00612044
		0.641096
		0.920674
		0.969569
		-0.0646835
		1
		-0.646721
		0.26741
		-0.673866
		-0.967145
		0.34099
		-0.971368
		0.0578974
		0.572551
		-0.950303
		-0.791899
			0.984306
		0.0691251
		0.524005
		0.339029
		-0.912117
		-0.202203
		-0.662098
		0.0498561
		0.557403
		-0.48111
		-0.463538
		-0.830447
		-0.917889
		0.878079
		0.580516
		0.616396
		0.340805
		0.953622
		-0.0612387
		0.616011
		-0.929772
		0.479562
		-0.142539
		-0.670177
		-0.148189
		0.562559
		-0.429337
		-0.399799
		0.0554115
		-0.514979
		-0.661681
		0.546257
		-0.144513
		0.160194
		0.312818
		-0.0531473
		0.903015
		0.460242
		0.953852
		-0.129823
		-0.798481
		-0.503474
		-0.692968
		0.594975
		-0.428853
		0.717486
		0.563581
		-0.20783
		-0.227785
		-0.180362
		-0.469656
			0.997243
		-0.781031
		0.683973
		0.406146
		-0.0668776
		-0.742465
		-0.583594
		0.353232
		-0.789908
		0.473753
		0.88613
		0.616952
		-0.372336
		-0.967233
		-0.9975
		0.188433
		0.128413
		-0.107473
		0.310511
		0.766769
		0.22602
		-0.406428
		-0.197955
		-0.809502
		0.618714
		-0.903122
		-0.822439
		0.626996
		0.108907
		0.302055
		-0.963985
		0.144692
		-0.732902
		0.110914
		-0.022078
		0.81825
		0.0947541
		0.124167
		0.615725
		0.482115
		-0.542084
		-0.445145
		-0.720872
		0.756873
		0.215446
		0.362408
		0.34302
		0.528913
		-0.38391
		0.326673
		0.146072
			0.990401
		0.839056
		-0.810885
		0.858702
		0.369983
		-0.446643
		0.0504318
		-0.7538
		-0.548517
		0.169567
		0.484771
		0.523515
		-0.497813
		-0.845608
		-0.700762
		0.356467
		0.425108
		0.545332
		0.746349
		-0.983104
		0.85768
		-0.171373
		0.461135
		-0.0368999
		0.164653
		-0.516753
		-0.32701
		-0.204587
		-0.00956309
		-0.714513
		0.529258
		-0.0663614
		-0.148022
		0.535499
		0.690351
		-0.708449
		0.288668
		0.984299
		0.363623
		0.205785
		0.588691
		-0.211527
		-0.565056
		0.151016
		0.0294871
		0.991114
		-0.363665
		-0.067359
		0.198344
		-0.11455
		0.943182
			0.998985
		0.786088
		0.774736
		-0.671189
		0.7566
		-0.0157552
		-0.558585
		-0.0325292
		-0.782431
		-0.813433
		0.130736
		0.0076387
		-0.652153
		-0.89726
		-0.263208
		0.0313928
		-0.0906422
		-0.493644
		0.428952
		0.301959
		0.177219
		-0.283452
		0.189512
		0.786066
		-0.932759
		-0.75205
		-0.345971
		-0.905846
		0.0822849
		-0.473108
		0.228128
		0.397098
		-0.663364
		-0.377173
		0.968882
		0.0945663
		0.56908
		-0.323984
		0.732606
		-0.507554
		-0.544055
		0.206044
		-0.875029
		0.598377
		-0.480641
		-0.282672
		0.955523
		-0.029525
		0.175742
		0.94206
		0.609456
			1.00778
		0.731564
		0.39464
		-0.204899
		-0.978569
		-0.436619
		-0.246659
		0.401253
		-0.611845
		-0.132425
		-0.0797243
		-0.137342
		0.00126739
		0.0690913
		-0.213054
		0.22228
		-0.917499
		-0.811459
		0.712255
		0.899214
		-0.119465
		-0.266897
		0.204431
		-0.0984173
		-0.749602
		0.192377
		-0.123958
		-0.570384
		-0.408361
		-0.0338924
		-0.191145
		0.597807
		-0.379733
		0.112764
		0.0101183
		-0.73327
		0.501277
		0.612953
		-0.66034
		0.259806
		-0.0098416
		-0.296897
		0.140313
		0.841596
		-0.0882378
		-0.762767
		0.930106
		-0.636432
		-0.705262
		0.0389845
		-0.632841
			1.00304
		-0.749945
		0.646064
		0.0696357
		0.178674
		0.359098
		0.870289
		0.758468
		0.914182
		-0.955613
		-0.989535
		-0.420446
		0.561985
		-0.0540621
		0.869086
		0.975748
		-0.296254
		-0.534775
		0.568573
		-0.0104864
		-0.729902
		0.0488908
		-0.0490888
		-0.653541
		-0.725183
		-0.145502
		0.233111
		0.491495
		0.524739
		0.897802
		0.236803
		-0.847991
		0.881321
		-0.632892
		-0.119814
		0.0697577
		0.160851
		0.329627
		0.593585
		0.855004
		0.026023
		-0.212079
		0.580412
		0.0457141
		0.939439
		-0.748975
		0.806271
		-0.703838
		-0.86313
		-0.354851
		0.742463
			1.00058
		-0.884197
		-0.973795
		0.821869
		-0.0661963
		0.801156
		-0.3579
		0.0865293
		0.794327
		0.242161
		-0.838167
		-0.402328
		-0.457677
		-0.32434
		0.0176053
		0.178623
		-0.852559
		0.24742
		0.449278
		-0.383484
		-0.12107
		-0.381402
		0.936603
		0.0825488
		-0.553729
		0.815098
		0.441115
		-0.651518
		0.870538
		0.0884624
		0.373496
		-0.774962
		0.698246
		0.924847
		-0.63179
		0.616748
		0.120311
		0.668882
		-0.394009
		-0.703257
		0.907033
		0.142637
		-0.740184
		-0.17822
		-0.160662
		0.914325
		0.101556
		0.536674
		-0.400262
		-0.53134
		0.237299
			1.00412
		-0.516464
		0.246205
		-0.46504
		0.339556
		0.0483724
		-0.115953
		0.573995
		0.00375136
		-0.425891
		-0.149381
		-0.276526
		0.371945
		0.46429
		-0.134825
		-0.777107
		0.540175
		0.718708
		-0.177505
		0.525232
		-0.637304
		0.689627
		-0.0473398
		0.890261
		0.623354
		0.360515
		-0.496188
		0.45196
		-0.66809
		0.945867
		0.456832
		0.610061
		-0.375187
		0.397411
		0.703461
		0.509619
		-0.178694
		0.46556
		-0.847178
		-0.16298
		-0.17133
		0.0348974
		-0.490532
		-0.368847
		-0.0144216
		0.213403
		-0.404401
		-0.787685
		-0.267675
		-0.102631
		-0.0784066
			0.990809
		0.512926
		0.918896
		0.831428
		0.795134
		-0.451039
		-0.587407
		-0.0746375
		-0.701106
		0.511703
		-0.994544
		-0.811244
		-0.172458
		-0.596282
		-0.671558
		0.319057
		-0.332599
		0.172121
		-0.311426
		-0.551972
		0.482645
		0.750274
		0.581761
		-0.628069
		-0.619601
		0.0344482
		-0.151731
		0.305946
		0.140454
		-0.585037
		-0.734131
		0.654206
		-0.776846
		-0.230739
		-0.870152
		-0.449332
		-0.713291
		0.340984
		-0.948278
		-1
		-0.338257
		-0.721337
		0.462082
		-0.918897
		-0.389484
		0.88907
		0.0820429
		0.516519
		-0.527292
		-0.86276
		-0.289593
			1.0153
		-0.803992
		0.742233
		-0.536936
		-0.0901822
		0.489957
		-0.732819
		0.464907
		0.0985105
		0.150483
		0.821752
		-0.386663
		0.173879
		-0.388082
		-0.923003
		-0.108444
		-0.506005
		-0.101988
		0.845994
		-0.857252
		0.41368
		0.754867
		-0.807353
		0.191847
		0.748739
		-0.629631
		-0.854077
		-0.332984
		-0.153395
		0.50176
		-0.33342
		0.301486
		-0.148948
		0.495206
		0.137815
		0.0397203
		0.168535
		0.0745617
		0.781454
		-0.465659
		-0.795943
		0.749489
		0.891679
		0.991304
		0.0550239
		0.0438508
		-0.29211
		0.474015
		-0.516479
		0.628196
		0.50606
			1.01581
		-0.108762
		-0.856432
		0.122294
		-0.29496
		-0.927897
		-0.648885
		-0.446392
		0.495861
		-0.760495
		0.4455
		0.660405
		-0.476378
		-0.242775
		0.728145
		-0.807045
		-0.106795
		-0.557987
		0.701919
		-0.850251
		0.492929
		-0.342428
		0.839072
		0.657698
		0.34535
		-0.702935
		0.791306
		-0.649991
		-0.857246
		-0.132764
		-0.983276
		-0.60252
		0.294923
		0.238102
		-0.821921
		0.955892
		-0.208139
		0.159203
		-0.856268
		-0.370945
		0.232226
		0.108029
		0.851125
		-0.894996
		-0.117117
		-0.184512
		0.972477
		-0.463515
		0.441864
		-0.960942
		-0.989038
			1.00866
		-0.304924
		-0.320504
		0.657992
		-0.994561
		-0.765571
		0.153177
		-0.887269
		-0.678433
		-0.697124
		0.527644
		-0.317131
		-0.755469
		0.568663
		0.788478
		-0.0211782
		0.605626
		0.251502
		0.794523
		0.598176
		0.756631
		-0.46352
		-0.820095
		-0.789437
		-0.403023
		0.886336
		0.113681
		0.19586
		-0.0258178
		-0.549108
		0.0475245
		-0.898961
		0.187785
		-0.930888
		0.477513
		0.81889
		-0.521817
		0.147021
		-0.428786
		0.447594
		-0.610357
		0.23996
		0.402052
		-0.579798
		-0.568726
		-0.175313
		0.578912
		-0.576047
		-0.176163
		0.479279
		0.3678
			1.01722
		-0.337146
		-0.80718
		-0.625917
		-0.0417363
		-0.431138
		-0.362328
		0.3898
		0.975118
		-0.765295
		0.865214
		-0.600479
		-0.37126
		-0.605502
		-0.752473
		0.59472
		-0.743964
		0.249356
		-0.623574
		-0.912431
		-0.114111
		-0.58013
		0.39157
		0.146192
		-0.376329
		-0.693824
		-0.431207
		-0.449431
		-0.987563
		-0.563643
		-0.0246706
		-0.984505
		0.690801
		0.647158
		-0.5599
		0.35867
		-0.833106
		0.387276
		-0.911925
		-0.974495
		-0.0187554
		0.295449
		-0.382176
		-0.36989
		0.921272
		0.000372979
		0.52791
		-0.028972
		0.897864
		0.195916
		0.942277
			1.01677
		0.949815
		0.247851
		-0.781213
		-0.750972
		-0.988383
		-0.666642
		0.953966
		-0.894784
		0.630911
		0.842109
		0.864889
		0.609512
		-0.202512
		-0.527114
		-0.811584
		0.716868
		0.421739
		-0.307267
		-0.918463
		-0.548952
		-0.236775
		0.671312
		0.856085
		0.713682
		0.972686
		0.497117
		-0.746376
		-0.844886
		0.195038
		0.48273
		0.965122
		-0.15196
		0.222758
		-0.184173
		0.820698
		0.63853
		-0.848122
		-0.554538
		0.946252
		-0.337989
		-0.928636
		-0.394233
		0.203825
		0.150471
		-0.472396
		-0.347772
		-0.840869
		0.951869
		0.411559
		0.439009
			0.994736
		0.946383
		0.36798
		0.246875
		-0.658341
		0.806454
		-0.411273
		0.0364916
		0.631003
		-0.745684
		-0.329152
		0.843225
		0.602592
		0.181324
		-0.770165
		-0.37895
		-0.312849
		-0.288546
		-0.0904244
		0.445589
		-0.252315
		0.340874
		0.148427
		0.223607
		0.700295
		0.801983
		0.311491
		-0.00755433
		-0.936888
		0.0312261
		0.418822
		0.461248
		0.435811
		-0.178531
		-0.453482
		0.751052
		0.929265
		0.665212
		0.0445672
		-0.354285
		0.0940869
		-0.934345
		-0.656191
		0.781045
		-0.562722
		-0.379024
		-0.0590078
		-0.604516
		0.716631
		0.0356348
		0.0624636
			1.00204
	}
	{
	15
		-0.812751
		-0.767279
		-0.825016
		-0.253103
		0.864887
		-0.967121
		-0.157156
		-0.676413
		0.517456
		0.393811
		-0.343488
		-0.135467
		-0.603146
		-0.853182
		-0.721677
		0.983377
		0.00765635
		0.848714
		0.0411097
		-0.704365
		0.750564
		-0.0645648
		0.392886
		0.451848
		-0.867157
		-0.923189
		0.307363
		0.265948
		0.987426
		-0.879607
			0.9937
		0.980895
		0.0973593
		-0.175177
		0.719715
		0.879678
		0.390907
		0.141521
		0.406701
		0.356029
		-0.196821
		0.437947
		0.386391
		-0.732379
		-0.747546
		-0.451291
		-0.102736
		-0.389405
		-0.705329
		-0.481132
		0.950685
		0.918296
		-0.508687
		0.276601
		-0.318731
		-0.575551
		-0.0482857
		0.87873
		-0.749819
		-0.401575
		-0.940484
			0.989062
		0.815477
		-0.751423
		0.00528927
		-0.554524
		0.362309
		0.0896888
		0.478538
		0.678753
		-0.274808
		0.969979
		0.0601748
		-0.217732
		0.361915
		-0.538806
		-0.975977
		-0.300318
		0.795759
		-0.0533329
		-0.315548
		0.212711
		-0.0252072
		-0.725621
		-0.0244271
		-0.283521
		0.540267
		-0.737868
		0.195916
		-0.115327
		0.500598
		0.686739
			0.999882
		-0.126507
		-0.297372
		0.991466
		-0.402967
		-0.142913
		-0.920932
		-0.244798
		0.0621112
		-0.922203
		-0.689387
		0.189332
		-0.427744
		0.316155
		-0.370645
		-0.755711
		0.411895
		0.664201
		-0.52722
		-0.962511
		-0.436048
		0.750765
		-0.243392
		-0.329422
		0.271563
		0.217773
		-0.792511
		0.169987
		-0.856645
		-0.61138
		0.664476
			0.978356
		0.786626
		-0.261797
		-0.686259
		-0.810744
		-0.573736
		-0.0389463
		-0.878142
		0.935816
		-0.852636
		-0.429412
		0.507466
		-0.517299
		0.323926
		0.413802
		-0.533363
		-0.467466
		-0.294042
		0.574947
		-0.195753
		0.709753
		0.642661
		0.353496
		0.592693
		0.259354
		-0.318388
		-0.0685726
		-0.339764
		0.171825
		-0.860692
		0.54116
			0.993337
		-0.0528735
		-0.102313
		0.434465
		0.451367
		-0.915451
		-0.0509599
		0.526051
		-0.0418286
		-0.00579046
		-0.991267
		-0.0835549
		-0.469167
		0.0285605
		0.0262978
		0.406242
		0.78584
		-0.100625
		0.698359
		-0.716039
		-0.198536
		-0.217126
		0.321507
		0.129241
		-0.888111
		0.0818093
		-0.327474
		-0.34269
		0.238293
		0.267333
		-0.0759829
			1.01361
		-0.348255
		-0.937103
		0.919863
		0.0138457
		0.896313
		-0.764771
		-0.311001
		-0.961531
		0.422457
		-0.683628
		-0.487932
		0.545259
		-0.648664
		0.498302
		-0.0512205
		0.507436
		0.349608
		-0.105577
		0.893993
		0.845431
		0.902991
		0.560939
		-0.381301
		-1
		-0.526541
		0.653174
		-0.647733
		-0.926574
		-0.0551431
		-0.366495
			0.981509
		-0.359909
		-0.378143
		-0.192686
		0.668959
		0.0549846
		0.982356
		-0.170092
		-0.888817
		-0.637647
		-0.713616
		0.269299
		0.936051
		-0.0738544
		1
		0.729361
		-0.668622
		-0.916724
		-0.257223
		0.619964
		-0.246009
		0.925897
		0.884556
		0.660316
		-0.806803
		-0.988995
		-0.459723
		0.287899
		0.710239
		-0.285511
		-0.14308
			0.98618
		-0.856171
		0.667762
		0.106069
		0.637792
		-0.326878
		0.399788
		-0.33102
		0.972025
		0.883693
		0.326224
		-0.227309
		-0.78923
		0.0969739
		0.558043
		0.31002
		-0.0896514
		0.0884242
		0.466465
		-0.887045
		0.174343
		-0.496452
		-0.729819
		0.324661
		0.733952
		0.951768
		0.905161
		0.178453
		-0.921814
		-0.579566
		0.237444
			1.01173
		-0.988585
		-0.0739493
		-0.599921
		-0.644598
		0.104447
		-0.89412
		-0.970158
		0.133485
		0.537354
		-0.0564096
		-0.778677
		-0.0245377
		0.41214
		0.797703
		-0.213732
		-0.798737
		0.196678
		-0.989025
		-0.556518
		-0.514523
		-0.617431
		-0.33756
		-0.0692105
		0.358332
		-0.9506
		-0.125357
		0.374695
		-0.90313
		0.337159
		0.62338
			1.01015
		-0.203664
		0.342432
		0.401358
		-0.0759748
		0.664569
		-0.656932
		-0.614605
		-0.604145
		-0.581387
		-0.796063
		-0.766088
		0.506123
		0.752188
		0.666263
		0.156215
		-0.420675
		0.495853
		0.00530169
		-0.66593
		0.538382
		0.0678206
		0.441442
		-0.328873
		0.213788
		-0.769765
		0.809948
		0.0827723
		-0.576901
		-0.583179
		0.62854
			0.994456
		-0.904185
		0.753888
		-0.537525
		-0.195632
		-0.0767384
		0.589286
		-0.841477
		0.77839
		-0.652164
		0.204933
		0.836367
		-0.264093
		-0.709553
		0.172505
		-0.174156
		-0.365141
		-0.485119
		-0.786897
		0.489914
		-0.732027
		-0.820595
		0.00360239
		-0.784235
		0.26119
		-0.785802
		0.0888138
		0.799435
		0.113794
		0.789455
		0.0839461
			1.00006
		0.829377
		-0.692097
		0.180245
		-0.589682
		-0.566399
		-0.71655
		0.068181
		0.93321
		-0.414791
		0.0963827
		-0.926037
		-0.994496
		0.640164
		0.513613
		-0.783962
		0.563154
		0.493015
		-0.326324
		-0.398096
		-0.813863
		0.683782
		0.351234
		-0.777653
		-0.680941
		0.969553
		-0.729619
		-0.367455
		0.994116
		-0.0262931
		0.483057
			1.00057
		-0.713729
		-0.367399
		0.098268
		-0.289051
		-0.475259
		0.0275489
		-0.43252
		0.384847
		-0.900459
		0.0831875
		0.852644
		-0.310925
		-0.0390252
		-0.890906
		0.77114
		-0.274337
		0.135847
		-0.90693
		-0.234443
		-0.206311
		0.168885
		1
		-0.759191
		-0.46665
		-0.122428
		0.637641
		0.469289
		-0.917202
		0.998503
		0.253002
			0.992577
		0.42798
		-0.20772
		-0.145915
		0.738738
		-0.622509
		-0.541808
		0.570663
		0.541017
		-0.0341693
		0.636452
		0.146761
		-0.479016
		0.894006
		-0.141907
		0.890927
		0.544331
		-0.566592
		0.480029
		-0.856465
		0.437385
		-0.250978
		0.0385257
		0.157342
		-0.0203918
		0.400776
		0.177692
		0.336918
		0.154754
		0.0760578
		-0.225008
			0.995039
	}
	{
	2
		0.0675368
		0.479081
		-0.793064
		-0.466451
		0.509524
		0.184664
		-0.985776
		-0.243967
		0.95313
		0.900659
		0.00112029
		0.437538
		0.0945205
		-0.398087
		0.82294
			0.9939
		0.970987
		0.611257
		-0.849807
		0.127661
		0.87632
		-0.423296
		0.269113
		-0.099559
		0.374227
		-0.0507666
		0.485905
		0.492198
		0.793018
		0.404924
		-0.876553
			0.985392
	}
}
