{
5
	{
	17
		1
			1
		1
			1
		1
			1
		1
			1
		1
			1
		1
			1
		1
			1
		1
			1
		1
			1
		1
			1
		1
			1
		1
			1
		1
			1
		1
			1
		1
			1
		1
			1
		1
			1
	}
	{
	50
		-0.0790515
		-0.319279
		-0.0107609
		-0.0249378
		0.599438
		-0.34544
		0.333529
		0.260366
		0.294331
		0.990237
		-0.689177
		-0.388371
		-0.0585309
		0.363411
		-0.0216807
		0.0742278
		0.329752
			1.03637
		0.130721
		0.150959
		-0.0882882
		-0.951671
		0.316065
		-0.40269
		-0.329097
		0.836882
		-0.152175
		-0.400352
		-0.832827
		0.828534
		0.90282
		0.166473
		-0.735239
		-0.0313304
		0.764347
			0.972336
		-0.128717
		0.974849
		-0.725202
		-0.385233
		-0.515104
		0.215474
		0.300502
		-0.64058
		-0.63009
		0.729272
		0.346037
		-0.860978
		-0.835273
		0.920382
		0.939799
		0.813807
		0.389917
			0.955195
		-0.758854
		0.0569418
		-0.320467
		-0.330734
		-0.715632
		-0.0669129
		0.483487
		0.154139
		0.665837
		-0.448603
		0.194957
		-0.10394
		0.741117
		0.354965
		-0.0206937
		-0.0548709
		-0.489723
			1.05222
		0.252919
		-0.414353
		0.461179
		0.667814
		-0.640731
		-0.572864
		0.233746
		-0.858431
		0.913023
		0.525369
		0.173574
		-0.191218
		0.971175
		-0.967282
		0.161024
		0.45922
		-0.580274
			1.02191
		0.845549
		-0.751337
		0.930119
		0.942097
		0.594922
		-0.414546
		-0.193182
		0.639321
		-0.0524611
		0.793589
		0.258133
		-0.92642
		0.0978831
		0.368894
		-0.255034
		-0.123655
		0.636011
			1.04091
		0.518512
		-0.726402
		-0.230419
		-0.469083
		-0.261096
		-0.826536
		0.562325
		0.280289
		0.0142937
		0.0393399
		-0.908727
		0.791288
		-0.185206
		-0.709221
		-0.997695
		0.850679
		0.0960035
			1.0058
		0.272829
		-0.0175841
		0.770801
		0.737781
		-0.36341
		-0.99039
		0.839753
		-0.33912
		0.342243
		-0.337037
		0.310181
		-0.263702
		0.653009
		-0.531321
		-0.440756
		-0.301097
		-0.637675
			1.00957
		-0.725455
		0.466822
		0.429366
		0.661768
		0.771336
		-0.23153
		-0.733892
		0.886662
		-0.0217238
		0.525036
		-0.0810137
		0.242203
		-0.468944
		0.188279
		-0.956451
		0.52254
		0.900965
			0.974837
		-0.0159949
		-0.781024
		0.188865
		-0.927271
		0.982552
		0.488019
		-0.84821
		-0.19111
		0.762602
		0.686185
		0.509901
		-0.86775
		0.663945
		-0.091833
		0.685383
		-0.226171
		-0.698853
			1.02797
		0.587253
		0.0625693
		0.214891
		-0.19525
		-0.557153
		-0.420698
		-0.0149932
		-0.341709
		-0.593323
		-0.890077
		0.335397
		0.940356
		0.506376
		-0.462789
		-0.853639
		-0.116388
		0.713358
			0.948306
		0.818815
		-0.302924
		0.0925814
		0.701931
		-0.919249
		0.729888
		-0.108768
		0.348585
		0.400121
		-0.406184
		-0.224034
		-0.129806
		0.750509
		0.730421
		0.0885271
		-0.629835
		-0.753394
			0.929819
		0.271571
		-0.914179
		-0.331271
		-0.209107
		-0.498361
		-0.226032
		-0.461113
		0.433978
		-0.127692
		0.685182
		-0.0240615
		-0.976801
		0.465299
		0.468434
		-0.517061
		-0.436793
		0.554375
			0.989084
		-0.619176
		0.948724
		0.653193
		-0.346992
		0.492751
		0.273565
		0.549411
		0.753391
		0.377119
		-0.046158
		-0.635104
		-0.536686
		-0.905065
		-0.0215532
		0.904814
		-0.959195
		-0.385918
			1.01459
		0.356708
		0.740426
		0.641575
		-0.729039
		-0.0949913
		0.176827
		-0.941181
		0.65346
		0.468838
		0.690718
		-0.0667623
		0.611988
		-0.331512
		-0.0241485
		0.203757
		-0.217669
		-0.807278
			0.983464
		0.239669
		-0.331138
		0.466658
		-0.0499157
		0.415125
		0.888183
		-0.749724
		-0.261863
		0.352471
		-0.712722
		-0.571376
		-0.114133
		0.901686
		-0.554208
		0.955494
		-0.965295
		0.0168035
			1.00058
		1
		-0.974952
		0.436434
		-0.883571
		-0.0787235
		-0.46668
		0.180794
		0.308051
		0.710476
		-0.587341
		0.219428
		0.201896
		0.229471
		-0.258779
		0.930437
		0.592541
		-0.61633
			0.948692
		-0.249412
		-0.351018
		0.290859
		-0.40275
		-0.843574
		0.158058
		-0.512791
		-0.960178
		0.636365
		-0.899046
		0.135468
		-0.65309
		0.246016
		0.664654
		-0.575853
		0.425107
		0.518477
			1.05111
		-0.8507
		-0.793758
		-0.813299
		-0.211965
		0.553953
		-0.348835
		-0.506005
		0.816478
		0.00278612
		-0.114613
		0.483362
		-0.91308
		0.56674
		0.262963
		-0.646504
		-0.845278
		-0.501214
			1.0254
		-0.296479
		0.72307
		0.073467
		-0.667901
		0.566302
		-0.465976
		0.716241
		-0.352628
		0.681355
		-0.810975
		0.358154
		-0.383638
		0.412927
		0.539278
		-0.42236
		0.752714
		-0.537157
			1.02854
		0.440122
		-0.801951
		0.697341
		0.89933
		-0.809162
		-0.85433
		0.341904
		-0.63045
		0.24553
		-0.735559
		0.154356
		-0.0963935
		0.227238
		-0.0434845
		0.383813
		-0.790944
		-0.636904
			0.957594
		-0.302984
		0.689957
		-0.26069
		-0.549719
		0.367075
		0.0713608
		-0.55695
		0.504312
		-0.572527
		-0.577132
		0.821118
		0.522507
		0.887606
		-0.00485714
		-0.0685281
		-0.10593
		-0.843989
			1.01189
		0.485786
		-0.203859
		0.298601
		-0.632557
		0.937313
		0.252953
		-0.934435
		-0.453095
		0.75867
		0.255162
		-0.0138383
		-0.018792
		-0.847115
		0.320955
		-0.701553
		-0.755454
		-0.852938
			0.963655
		0.855291
		-0.841476
		0.92022
		-0.733542
		0.546699
		-0.473029
		-0.59282
		-0.938117
		0.320123
		-0.575585
		-0.393668
		-0.102367
		-0.31685
		0.83392
		0.798331
		-0.370831
		0.610111
			1.01823
		-0.863495
		0.975909
		-0.219037
		-0.70813
		-0.255752
		0.575088
		-0.765041
		0.333095
		0.720996
		-0.379471
		-0.971231
		-0.484469
		-0.87523
		-0.514702
		0.961468
		0.155577
		0.940648
			1.03678
		0.0321085
		0.19609
		-0.857097
		-0.878332
		-0.203302
		0.581387
		0.841354
		0.369875
		-0.768313
		0.0873727
		0.859686
		-0.854956
		0.644044
		0.825176
		-0.644568
		-0.254602
		0.175479
			0.993832
		-0.940444
		0.0124857
		-0.285104
		0.328252
		-0.834874
		0.850461
		0.308535
		-0.0764769
		-0.27318
		0.880618
		0.104694
		0.735055
		-0.528615
		-0.287729
		0.802411
		0.202328
		0.384671
			1.02589
		-0.427003
		-0.722247
		-0.610678
		-0.297869
		0.41073
		0.0440603
		0.30544
		0.185231
		0.81939
		-0.272653
		0.798099
		0.136718
		0.201298
		0.157985
		-0.610227
		-0.551763
		-0.802273
			1.0311
		-0.931413
		0.907435
		-0.0339145
		0.702488
		0.517966
		0.281854
		-0.818121
		0.931666
		0.579903
		-0.967413
		-0.617876
		-0.261219
		0.662497
		0.251508
		-0.439831
		-0.956492
		0.553018
			1.06356
		0.977375
		-0.885469
		0.838307
		0.884525
		-0.617137
		0.287002
		-0.273148
		0.123876
		0.896396
		-0.938098
		-0.626832
		0.200283
		-0.103216
		-0.210134
		0.784407
		0.952333
		-0.609132
			0.975039
		-0.0296092
		-0.920028
		0.59878
		0.835071
		-0.505567
		-0.533947
		-0.606198
		-0.254614
		0.874799
		0.608524
		0.104373
		-0.346769
		-0.363003
		-0.224432
		0.408359
		0.542109
		-0.923918
			0.989457
		0.295999
		-0.567774
		0.0138433
		0.794622
		-0.910928
		0.697367
		0.299481
		0.297909
		-0.748948
		-0.725771
		-0.373096
		-0.755909
		-0.49384
		-0.728427
		0.78806
		-0.893171
		0.966625
			1.00801
		-0.0567003
		0.295098
		-0.846536
		-0.469289
		0.478307
		-0.0327608
		-0.77961
		0.514116
		0.623672
		0.522003
		-0.746035
		-0.694336
		-0.831882
		-0.246035
		-0.985236
		0.720119
		-0.263672
			0.988052
		0.0444514
		0.398918
		-0.758559
		0.801786
		-0.139743
		-0.115505
		0.195527
		0.981727
		0.673644
		-0.62122
		-0.577145
		0.653373
		-0.382023
		0.388223
		-0.532352
		-0.299142
		-0.139296
			0.95843
		-0.822784
		1
		0.411555
		0.259012
		-0.73087
		-0.100304
		-0.353734
		-0.546314
		0.814911
		0.140362
		-0.162596
		-0.0552239
		-0.316996
		0.440759
		-0.0406684
		-0.0560282
		0.0835721
			1.05135
		-0.404064
		0.395781
		-0.11745
		-0.852754
		0.523148
		0.38615
		0.210189
		0.0826321
		-0.59974
		0.594177
		-0.370596
		0.370443
		-0.169636
		0.659139
		-0.785215
		0.743902
		0.798764
			0.984706
		0.673393
		0.835954
		0.934529
		-0.727344
		0.147809
		-0.43058
		-0.502593
		-0.265715
		0.504646
		-0.156434
		-0.755988
		-0.426782
		-0.227211
		0.840002
		-0.849171
		0.809678
		0.32431
			1.0166
		0.286107
		0.906404
		0.877034
		0.514284
		-0.68662
		-0.51159
		-0.385946
		-0.519143
		0.852058
		0.715157
		-0.737581
		-0.389353
		0.917148
		-0.822183
		-0.812849
		-0.539381
		-0.627031
			0.96579
		-0.513522
		-0.851262
		-0.988804
		0.690284
		0.485092
		0.664731
		-0.283078
		-0.245915
		1
		0.515557
		0.838454
		0.30156
		-0.735232
		0.454744
		0.220396
		0.595177
		0.988202
			1.05015
		-0.205883
		0.231649
		0.236274
		-0.189602
		-0.843958
		0.287989
		0.00279067
		0.415326
		-0.840812
		-0.922194
		-0.32747
		0.369139
		-0.796046
		-0.00894945
		-0.8408
		-0.264306
		0.0906061
			1.05898
		-0.943993
		0.945037
		-0.547095
		0.753584
		-0.963086
		-0.212605
		-0.285377
		-0.450732
		0.688769
		0.513236
		0.355479
		-0.739894
		0.598467
		-0.0633644
		0.621761
		-0.144298
		0.290757
			0.997498
		-0.502768
		0.178405
		0.235333
		0.990624
		-0.0428867
		-0.00331252
		0.783864
		-0.606384
		0.900258
		0.310756
		-0.903735
		0.0852188
		-0.996705
		-0.54354
		0.821477
		0.91447
		-0.631388
			0.979192
		0.2833
		0.564944
		0.663694
		-0.810503
		-0.5938
		-0.799792
		0.472717
		0.322796
		0.660073
		0.962746
		0.826181
		0.886692
		0.619586
		-0.257005
		0.920585
		0.235123
		-0.536462
			1.02754
		0.0264809
		0.400012
		-0.897482
		-0.886621
		-0.282699
		0.732323
		0.886343
		-0.530505
		0.147622
		0.30168
		-0.522773
		0.0275749
		-0.109917
		0.818467
		-0.636048
		-0.727823
		-0.174676
			0.961063
		0.0777252
		-0.758215
		-0.57728
		-0.265432
		-0.767348
		0.983435
		0.832447
		0.209713
		0.789833
		-0.385487
		0.796751
		0.17502
		0.506669
		0.342559
		-0.881525
		0.931132
		-0.0306604
			1.03601
		-0.875881
		0.654492
		-0.508563
		-0.976468
		0.0611961
		0.604771
		0.558153
		0.191329
		0.327744
		-0.0703039
		0.217044
		0.964892
		0.792998
		0.920284
		-0.45569
		0.949423
		0.485395
			0.995753
		0.476676
		-0.1081
		-0.147506
		0.243995
		-0.402766
		-0.925371
		-0.274463
		-0.0113042
		0.343162
		-0.00607005
		-0.895198
		-0.280415
		0.847762
		0.320444
		0.268891
		-0.572719
		0.940951
			0.978287
		-0.493414
		0.0655492
		-0.39922
		0.811642
		-0.112347
		0.34032
		-0.685232
		-0.860941
		0.577819
		-0.584256
		0.236039
		0.0980964
		-0.46783
		0.162801
		-1
		0.458923
		0.139305
			0.953161
		-0.840696
		0.80913
		0.265273
		0.372178
		-0.94198
		-0.798475
		-0.140933
		-0.000865386
		0.639162
		-0.638394
		0.728595
		0.593584
		0.204648
		-0.985945
		-0.311984
		-0.441076
		-0.447634
			1.03256
		-0.828663
		-0.730507
		0.497115
		-0.459049
		-0.567932
		0.803117
		-0.0307069
		-0.227227
		0.873285
		0.0349225
		0.849498
		-0.669387
		0.660766
		0.663833
		-0.843524
		-0.555881
		-0.579181
			1.00045
	}
	{
	30
		0.321125
		0.0647474
		-0.436048
		0.177955
		-0.841958
		-0.697719
		0.655438
		0.790822
		0.956458
		-0.804869
		-0.0121718
		0.485581
		-0.17832
		-0.762619
		0.716638
		-0.904662
		-0.266017
		-0.0889086
		-0.113353
		-0.679608
		-0.561103
		-0.745014
		-0.151067
		0.361551
		0.182939
		-0.585149
		0.727959
		0.832811
		-0.385766
		-0.124809
		-0.885019
		-0.223689
		-0.457198
		-0.75952
		0.411444
		-0.60895
		-0.575894
		0.720116
		-0.975196
		-0.230486
		0.235188
		0.875717
		0.244604
		-0.248285
		-0.410855
		0.471626
		0.841106
		0.187181
		0.157079
		0.683005
			1.02525
		0.122763
		-0.809402
		0.946877
		-0.486134
		-0.941277
		0.914646
		0.311281
		0.389002
		-0.349544
		0.0988316
		-0.711794
		0.829065
		0.402391
		-0.0740431
		0.0798647
		-0.00286474
		-0.217561
		0.767835
		-0.768215
		-0.620352
		0.700049
		0.991454
		-0.411088
		-0.90858
		0.756908
		0.583636
		0.476471
		0.815885
		-0.958755
		-0.0422925
		0.875411
		0.585559
		-0.151794
		0.932187
		0.280874
		-0.273527
		0.550126
		-0.657521
		0.518745
		-0.0754233
		0.223015
		-0.912513
		0.988745
		0.969494
		-0.924002
		0.548031
		0.475344
		-0.440951
		0.787965
		0.0795441
			1.01507
		0.258051
		0.35056
		-0.939885
		-0.674017
		0.251527
		0.677007
		-0.127995
		0.11128
		-0.675906
		0.339558
		0.123744
		0.294963
		0.32725
		0.165024
		-0.576846
		-0.163844
		0.0738055
		-0.910071
		-0.676168
		0.966406
		-0.705106
		-0.737415
		-0.893795
		-0.170384
		-0.960713
		-0.696999
		-0.993555
		-0.919291
		-0.742587
		0.00946866
		-0.848
		0.200359
		-0.357575
		0.917453
		0.917417
		0.528034
		-0.203212
		-0.808441
		0.887582
		-0.819407
		0.481804
		0.983231
		0.666607
		-0.258516
		-0.368419
		-0.679653
		0.0404554
		0.798003
		0.04833
		0.985644
			0.983481
		0.383282
		-0.257661
		-0.595183
		0.61522
		0.0458593
		-0.265947
		-0.487424
		0.64775
		-0.27945
		-0.911086
		-0.283344
		0.858165
		-0.557882
		-0.0250982
		-0.188897
		0.239659
		-0.861698
		0.80329
		0.0980261
		-0.347834
		-0.21415
		0.168662
		-0.637616
		0.68324
		-0.81277
		-0.667189
		-0.0592412
		0.821405
		-0.289908
		0.272799
		-0.820032
		0.440599
		0.262539
		0.0518265
		-0.13449
		-0.599581
		-0.592511
		-0.0297557
		-0.682034
		0.132666
		0.558665
		-0.919307
		-0.944825
		0.332829
		-0.947691
		-0.394118
		0.418993
		-0.332492
		0.292425
		0.896182
			0.949843
		-0.612811
		-0.228371
		-0.707705
		0.841377
		0.683112
		-0.415063
		-0.0280238
		0.803863
		0.678025
		0.534907
		-0.692156
		0.397902
		-0.0864148
		0.972193
		-0.428618
		-0.919724
		-0.0223691
		0.0660781
		0.646823
		-0.720832
		-0.893082
		0.853416
		0.688821
		-0.000135792
		-0.877155
		-0.102086
		0.262977
		0.926745
		0.653051
		0.507618
		0.685727
		0.140892
		0.175854
		0.582807
		-0.522725
		0.690999
		0.791718
		-0.219207
		-0.866214
		0.321306
		-0.107987
		-0.551411
		0.312754
		0.67152
		0.0705743
		-0.0769945
		0.474728
		0.375687
		-0.518105
		-0.0824933
			0.987313
		-0.326324
		-0.0479693
		0.571927
		0.0104449
		-0.759246
		-0.761754
		-0.187566
		0.0831069
		0.0829057
		-0.675669
		0.745631
		0.261043
		0.56332
		0.452732
		-0.761494
		0.0651806
		0.562002
		0.827221
		0.821165
		-0.465032
		0.605943
		0.712278
		-0.430076
		-0.383509
		-0.696342
		0.261635
		0.532989
		0.791827
		-0.830888
		0.110086
		0.390967
		-0.321672
		-0.515399
		-0.522543
		0.884332
		0.724085
		0.861599
		0.89815
		-0.521168
		0.327017
		0.496811
		-0.189253
		0.507826
		0.355401
		0.0188359
		0.128884
		-0.146008
		-0.723725
		-0.13244
		-0.251292
			1.00961
		-0.253098
		-0.97442
		-0.0395854
		-0.707552
		0.230836
		0.0751815
		-0.452885
		0.0360866
		-0.347504
		0.944456
		-0.385747
		-0.960467
		0.928244
		0.830888
		-0.238858
		-0.367403
		0.34308
		0.404239
		0.225865
		-0.348329
		0.765279
		-0.69468
		-0.0568902
		0.700693
		0.744284
		0.488533
		0.639107
		0.413561
		-0.629671
		0.371283
		-0.409638
		-0.292069
		-0.501989
		0.600458
		0.8965
		-0.139149
		0.684811
		0.917426
		-0.874452
		0.0908249
		1
		0.179406
		-0.559168
		0.49634
		-0.263631
		0.0355235
		0.938411
		-0.874061
		0.673836
		0.351956
			0.9568
		-0.0686974
		0.695106
		0.574149
		0.773195
		0.056617
		0.326563
		-0.171548
		0.0489471
		0.43816
		0.742128
		-0.406696
		0.560673
		0.555381
		0.203625
		-0.412119
		0.685308
		0.725565
		-0.878106
		0.137726
		-0.551945
		0.659728
		0.392965
		-0.42919
		0.0119088
		0.289602
		0.186816
		-0.196094
		-0.956491
		0.561254
		0.430295
		1
		-0.0403503
		0.0179317
		-0.193919
		0.251842
		-0.690236
		-0.915842
		0.0316002
		-0.576724
		0.968125
		0.589235
		-0.618425
		0.650336
		0.0431555
		0.62988
		0.596694
		0.615007
		-0.415147
		0.547089
		-0.0435547
			0.989784
		-0.29165
		-0.188102
		0.196494
		0.281875
		-0.261112
		0.229444
		-0.558917
		0.667215
		0.243816
		0.654555
		0.583364
		-0.362273
		-0.444144
		0.790598
		0.613861
		-0.888988
		-0.77935
		0.824009
		0.104131
		-0.82126
		0.406018
		0.845509
		0.427717
		0.862279
		0.840625
		0.0529927
		0.280294
		-0.147417
		0.50704
		0.0369454
		-0.755891
		-0.0342423
		-0.611702
		-0.487074
		0.0737488
		0.831767
		0.907206
		0.617483
		0.148373
		0.781629
		0.755763
		0.71096
		-0.0390741
		0.382481
		-0.0103052
		0.290427
		-0.325894
		-0.303388
		-0.535919
		0.131238
			0.971459
		-0.898843
		0.585001
		0.916322
		-0.545677
		-0.932297
		0.432417
		0.986749
		-0.814909
		0.944063
		0.227141
		0.616243
		0.447524
		-0.0973943
		-0.718686
		-0.810654
		0.86902
		-0.274926
		0.433883
		0.0838768
		0.963307
		-0.670482
		0.246271
		-0.916015
		0.0664005
		0.690045
		-0.163023
		-0.593827
		0.161435
		0.802098
		0.781782
		-0.858703
		-0.83782
		0.653445
		0.351562
		0.622172
		0.834709
		-0.657748
		0.156654
		-0.0301402
		0.665927
		0.642684
		-0.1621
		-0.330709
		-0.469639
		0.788704
		0.598808
		-0.717818
		-0.770522
		-0.885789
		-0.578849
			0.974425
		-0.563767
		-0.864567
		-0.206585
		-0.844655
		-0.505601
		0.779662
		-0.796132
		0.726952
		-0.0268956
		-0.0710315
		-0.426696
		0.63973
		0.815075
		0.958896
		0.463765
		0.662349
		0.327509
		0.754685
		0.0326737
		0.204305
		-0.732144
		-0.891012
		0.554789
		0.048218
		-0.511331
		-0.16551
		0.520531
		-0.638007
		0.493739
		-0.74534
		-0.765427
		-0.896251
		0.438236
		-0.825164
		0.182019
		0.0332738
		0.414966
		-0.232409
		0.917478
		-0.611173
		-0.813329
		-0.506809
		-0.855759
		-0.398193
		-0.842849
		-0.477975
		0.769238
		0.685927
		0.209047
		-0.747204
			0.996769
		-0.432712
		-0.284559
		0.381092
		0.0951295
		0.459197
		-0.0472042
		-0.657893
		0.395979
		-0.825714
		-0.753461
		-0.29022
		0.470141
		-0.0815367
		-0.884974
		-0.0632276
		-0.975606
		0.935715
		0.181796
		0.62169
		-0.796876
		0.0061064
		-0.427986
		0.226333
		0.49943
		0.766595
		0.786183
		-0.565796
		-0.109421
		0.840576
		-0.430473
		-0.267691
		0.456632
		0.433718
		-0.0711774
		-0.691141
		0.250253
		0.894545
		0.213975
		-0.0805449
		-0.255809
		0.908137
		0.711248
		0.250548
		-0.49699
		-0.228636
		-0.11595
		0.0305804
		0.888021
		0.123348
		-0.529686
			0.974029
		-0.664288
		0.237587
		-0.449402
		0.884506
		-0.93799
		0.900631
		-0.623602
		0.169159
		-0.9064
		0.354238
		0.658137
		-0.152979
		-0.274717
		0.361012
		0.552979
		-0.816049
		0.488558
		-0.835457
		-0.625652
		-0.811183
		0.881247
		0.998206
		-0.561842
		0.759764
		-0.262616
		0.0360231
		0.0139029
		-0.00289011
		0.291781
		0.75143
		0.0252463
		0.262675
		-0.126469
		-0.832793
		-0.709933
		0.266668
		-0.682028
		0.563012
		-0.286847
		-0.318099
		-0.254945
		0.14918
		0.897417
		-0.400522
		0.234248
		-0.743215
		0.00113436
		0.0223275
		0.313911
		-0.310389
			1.01076
		0.0327356
		0.423596
		-0.560527
		0.992076
		0.604412
		0.852307
		0.0771761
		1
		0.983011
		-0.700701
		-0.65954
		-0.938509
		0.363755
		-0.714012
		-0.0320138
		-0.924051
		-0.0151935
		0.195563
		-0.207202
		-0.554156
		0.30673
		0.28111
		-0.34924
		-0.559861
		-0.76554
		0.589714
		0.764503
		-0.669741
		0.479568
		-0.417349
		-0.355574
		-0.389491
		-0.0295572
		-0.650879
		0.225664
		0.714137
		-0.331493
		-0.8336
		-0.613899
		-0.0513693
		-0.400697
		-0.798728
		-0.62862
		-0.142815
		0.906079
		0.239477
		-0.148794
		0.536168
		-0.968969
		0.830732
			1.02501
		0.651697
		-0.303502
		-0.377996
		-0.755986
		0.998969
		-0.286478
		0.000492849
		0.0998554
		-0.00600644
		0.821879
		-0.297423
		-0.251486
		-0.0980166
		-0.211573
		-0.938203
		0.943561
		-0.976655
		-0.744482
		-0.0244517
		0.258949
		0.379974
		0.0139241
		-0.259479
		0.783492
		-0.352118
		-0.373054
		-0.938605
		-0.983293
		-0.23468
		0.806393
		0.761226
		-0.238509
		-0.568895
		-0.692604
		-0.279055
		0.570476
		0.615289
		-0.599795
		0.49495
		0.858081
		-0.0455384
		0.28192
		0.961894
		0.722178
		0.441455
		0.14237
		0.0392261
		-0.466395
		0.825881
		-0.170595
			0.99861
		0.727748
		-0.625594
		-0.20244
		-0.950982
		0.0503985
		0.73787
		-0.982422
		0.719009
		0.0902229
		0.357682
		0.268085
		0.439656
		0.176387
		0.428801
		0.846848
		0.47375
		0.613881
		0.841663
		-0.543393
		-0.0489961
		0.795048
		-0.674336
		-0.0412742
		0.0184826
		-0.562126
		-0.452887
		-0.920864
		-0.245479
		0.405953
		-0.632343
		0.186784
		-0.548774
		0.721792
		0.340941
		0.83518
		0.0784554
		-0.0976158
		-0.937808
		-0.596551
		-0.363661
		-0.814414
		-0.711865
		0.522027
		0.925809
		-0.6598
		-0.537954
		0.958909
		-0.604639
		0.211363
		-0.991851
			1.02274
		0.851196
		-0.171427
		-0.303844
		-0.628189
		0.8689
		0.630296
		0.23225
		-0.525078
		0.126562
		0.650534
		0.370548
		-0.405323
		0.840849
		-0.294752
		0.728628
		-0.569882
		0.844915
		-0.841569
		-0.415386
		-0.412534
		0.0331785
		0.795405
		-0.820735
		-0.347556
		-0.246252
		0.808583
		0.757175
		-0.760643
		-0.760585
		0.476443
		0.121209
		0.658092
		0.35691
		0.822536
		0.886289
		0.600386
		0.499168
		0.477826
		0.0780957
		0.67308
		-0.194065
		-0.107819
		-0.978456
		-0.183431
		-0.1838
		-0.440522
		-0.693816
		-0.358915
		-0.210224
		-0.432669
			1.00216
		0.275055
		-0.421851
		-0.292713
		0.912058
		0.910393
		-0.212034
		-0.45575
		-0.109618
		0.142253
		-0.126423
		0.404109
		-0.089521
		-0.24842
		0.176432
		0.089426
		-0.493769
		0.754875
		-0.083551
		0.0658838
		0.349999
		-0.332326
		-0.288692
		-0.89818
		-0.207136
		0.303357
		0.540153
		-0.567512
		0.618043
		0.622694
		0.342912
		-0.379714
		-0.692708
		-0.339479
		-0.124523
		0.352428
		0.604851
		0.872653
		0.378974
		-0.0676782
		0.773545
		-0.373243
		0.62426
		0.385954
		0.276178
		0.315436
		0.0920463
		0.131136
		-0.377427
		0.76905
		0.126643
			1.02262
		0.373938
		0.813572
		-0.497673
		-0.290989
		0.935957
		-0.577478
		-0.774796
		-0.0319748
		-0.457879
		0.234333
		-0.939119
		-0.396949
		0.878803
		-0.181907
		0.5794
		0.928764
		-0.807658
		0.533141
		-0.61451
		0.984732
		-0.9931
		-0.708395
		0.479752
		0.640054
		0.544035
		-0.0633741
		0.958717
		-0.179449
		-0.812634
		-0.0847193
		0.766607
		-0.631488
		-0.744261
		0.813769
		-0.32059
		0.334228
		0.851331
		-0.590055
		-1
		0.0657979
		0.87787
		-0.0184589
		0.449749
		0.162904
		0.216249
		-0.698267
		0.481813
		0.613482
		0.758914
		-0.43942
			1.01868
		0.770546
		-0.396076
		-0.518947
		0.294902
		0.678563
		0.545555
		-0.368937
		-0.605202
		0.485449
		-0.849948
		-0.0426187
		0.393478
		0.0564109
		-0.554758
		-0.0945186
		0.903794
		0.482454
		-0.17282
		0.387116
		0.817666
		0.205531
		0.223775
		-0.00303708
		-0.627062
		0.665732
		0.952942
		0.651325
		-0.679451
		-0.261049
		0.680479
		-0.953404
		0.367836
		0.803081
		0.644959
		0.0622729
		-0.345919
		0.993112
		0.505801
		-0.459103
		-0.506157
		-0.383023
		0.631355
		-0.238981
		-0.150978
		-0.0428406
		-0.486192
		0.861961
		0.0752548
		-0.329234
		-0.906614
			0.960992
		-0.190256
		0.159895
		-0.192673
		-0.706047
		0.460178
		0.0578723
		-0.790957
		-0.321361
		-0.398269
		0.179487
		-0.558682
		0.000585345
		-0.880136
		-0.00109229
		-0.507363
		-0.798135
		0.0350775
		0.305534
		0.949378
		0.218394
		-0.394062
		0.65614
		0.798509
		-0.873343
		0.174645
		0.252037
		-0.736038
		0.599868
		0.075853
		-0.746675
		-0.924594
		-0.53614
		-0.822054
		-0.904292
		0.0621847
		-0.133365
		-0.900679
		-0.263484
		-0.471619
		0.839642
		0.66573
		-0.659962
		-0.439454
		-0.73891
		-0.411649
		-0.632453
		0.266289
		-0.739574
		0.872141
		0.418099
			1.00678
		-0.991229
		-0.84937
		0.383096
		-0.296775
		0.499999
		0.486815
		0.784186
		0.783507
		-0.775709
		-0.99968
		0.649534
		-0.44671
		0.039655
		0.93856
		-0.715705
		0.0229888
		-0.363037
		0.108515
		0.344442
		0.174205
		0.927532
		-0.864406
		-0.122795
		-0.443608
		0.801623
		0.858113
		0.236669
		-0.398187
		0.71224
		0.715708
		0.443393
		0.91457
		0.357087
		-0.0766586
		-0.306611
		-0.56022
		0.628952
		0.451965
		-0.148866
		-0.62311
		0.0585717
		0.976983
		-0.794293
		-0.142136
		0.0165383
		0.0168679
		-0.94843
		0.679924
		0.158157
		-0.45409
			0.964709
		-0.497438
		-0.740018
		0.268385
		-0.0693285
		-0.556434
		0.394087
		0.784435
		0.385834
		0.289747
		-0.363354
		-0.167867
		0.496856
		0.573846
		0.252075
		0.996055
		-0.911019
		0.909491
		0.662643
		-0.743863
		-0.0822462
		-0.0699711
		-0.557423
		0.697444
		-0.183777
		-0.774304
		-0.682551
		0.106209
		-0.278191
		-0.251967
		-0.402023
		0.0623215
		-0.546577
		-0.367527
		0.738632
		0.416235
		-0.752376
		-0.073487
		0.494092
		-0.105942
		-0.71417
		0.0248536
		0.728743
		0.92895
		-0.0741052
		0.0216013
		-0.754967
		-0.21092
		0.739712
		0.397794
		0.266704
			0.974802
		0.0997667
		0.129414
		-0.412708
		-0.921481
		0.97909
		0.932999
		-0.00292771
		-0.861887
		-0.715859
		-0.232403
		0.917898
		0.688463
		0.492906
		0.521891
		0.892528
		0.698568
		0.253074
		-0.263079
		0.441198
		-0.261391
		-0.692683
		0.479969
		-0.587945
		0.0155706
		0.763594
		0.921803
		-0.552892
		0.522694
		0.293025
		0.210636
		0.107113
		-0.567272
		0.815508
		0.908672
		-0.0119607
		-0.510364
		-0.574377
		0.777942
		0.045222
		0.608551
		0.23734
		0.211911
		0.591404
		0.735576
		-0.286668
		-0.834147
		0.710573
		-0.977886
		-0.0233717
		0.294015
			1.01387
		-0.0125425
		0.92996
		-1
		0.515918
		-0.66745
		0.897038
		-0.0782427
		0.0374409
		-0.236929
		-0.908796
		-0.761902
		0.847366
		-0.89908
		0.943792
		0.590164
		0.590781
		0.541013
		-0.743169
		-0.558259
		-0.292115
		0.854177
		0.922248
		-0.353617
		0.0818851
		0.820987
		-0.424562
		0.393999
		-0.816853
		-0.0449048
		-0.0640278
		0.0679382
		0.555304
		0.268623
		-0.118327
		-0.071396
		-0.739946
		0.333596
		0.387413
		-1
		0.274291
		0.428605
		-0.241728
		-0.39453
		-0.821648
		-0.00778937
		0.00948187
		0.737241
		0.0246869
		0.832815
		-0.340134
			1.04325
		-0.614302
		-0.428898
		-0.24167
		-0.443178
		-0.133457
		0.461868
		0.27514
		0.149754
		0.396057
		0.193062
		0.72122
		-0.580853
		0.49715
		0.996282
		-0.960679
		-0.278662
		-0.460988
		0.405298
		-0.0254077
		0.336081
		0.279079
		-0.745495
		-0.887481
		-0.339136
		-0.355303
		-0.498165
		0.465295
		-0.206936
		0.266752
		0.88321
		0.916337
		-0.766327
		0.26468
		-0.361272
		0.873584
		-0.13974
		-0.914035
		-0.610831
		-0.414083
		0.49145
		0.0500906
		-0.881403
		0.497494
		-0.257204
		-0.831589
		0.154294
		0.46223
		0.298979
		0.476936
		-0.872074
			1.04379
		-0.579666
		-0.106196
		-0.083342
		-0.953572
		-0.172042
		-0.4893
		0.164905
		-0.398993
		-0.402026
		-0.334271
		-0.0145063
		-0.856904
		-0.806527
		-0.573965
		-0.172242
		-0.977251
		-0.00945554
		-0.525636
		-0.620655
		-0.795342
		0.0999393
		-0.377781
		0.761225
		0.589981
		-0.0179492
		-0.848017
		-0.174356
		-0.531672
		-0.966731
		0.722537
		-0.29572
		0.0800989
		0.849608
		0.667029
		-0.35681
		0.570931
		0.837471
		0.878729
		0.951691
		0.718629
		-0.158263
		0.675177
		0.446013
		-0.628671
		0.136418
		0.977063
		0.775893
		0.0970912
		0.0629561
		-0.176826
			0.9742
		0.432757
		-0.900557
		-0.856025
		-0.31072
		0.586464
		0.616368
		-0.814328
		0.0575662
		0.091588
		0.868468
		-0.494539
		-0.824615
		-0.400816
		-0.45402
		-0.0883096
		0.289932
		-0.630343
		0.950655
		0.829228
		0.358433
		0.388246
		0.0464788
		0.836265
		0.270937
		0.15592
		0.800844
		0.785795
		-0.494766
		0.744261
		0.937731
		-0.697222
		0.553633
		0.0590649
		0.371629
		0.6251
		-0.0514662
		0.404148
		-0.955181
		-0.39095
		0.647616
		-0.796028
		0.701178
		-0.95105
		0.786417
		0.90625
		-0.51485
		-0.338141
		0.438253
		0.534121
		0.0608321
			0.993789
		0.617847
		-0.271852
		0.0604844
		-0.2401
		-0.376717
		-0.056859
		-0.661268
		-0.737507
		0.406719
		-0.221822
		-0.222794
		-0.808194
		-0.568429
		-0.704965
		-0.416964
		-0.645446
		0.438479
		0.560901
		0.148327
		-0.793851
		-0.167735
		-0.396911
		0.353696
		0.0613374
		0.984571
		-0.060168
		-0.636033
		-0.667935
		0.326671
		0.737601
		0.6598
		0.431939
		-0.44413
		-0.121233
		-0.148127
		0.284153
		0.569896
		-0.9063
		0.121647
		0.968962
		0.54895
		-0.438564
		-0.930974
		0.0971927
		-0.669268
		-0.122178
		0.404685
		0.707918
		-0.890737
		0.867798
			0.965367
		0.267602
		-0.224848
		-0.109194
		-0.745214
		0.554131
		0.652112
		-0.890245
		-0.0531395
		-0.595967
		-0.10613
		-0.611487
		0.964318
		0.747498
		-0.994577
		1
		0.363212
		0.939028
		0.988787
		-0.590451
		-0.691796
		0.190441
		0.718923
		-0.933797
		-0.324547
		0.650398
		0.410368
		-0.726557
		0.163506
		-0.528903
		-0.322062
		-0.682196
		-0.767402
		0.0903174
		-0.73295
		-0.956649
		0.214832
		0.416269
		0.518606
		-0.592087
		-0.796669
		0.428012
		-0.18561
		-0.142758
		0.977817
		-0.120391
		-0.775077
		-0.949791
		0.349356
		0.934686
		-0.913886
			1.00135
	}
	{
	15
		0.985149
		0.0700093
		-0.613468
		0.190043
		0.0756367
		0.212785
		-0.966111
		0.392309
		0.708648
		-0.160253
		-0.340743
		0.1796
		0.100411
		-0.873272
		-0.199597
		-0.490491
		-0.0635502
		-0.838714
		0.75065
		0.407906
		0.279208
		-0.943134
		0.59534
		-0.803754
		-0.123787
		0.761739
		0.903867
		-0.611808
		-0.309744
		-0.331667
			1.02733
		0.521879
		-0.710145
		-0.33763
		-0.696728
		-0.669575
		-0.834413
		0.312379
		-0.0480116
		-0.0521968
		-0.138506
		0.493829
		0.960796
		-0.18558
		0.476273
		0.715385
		-0.919783
		0.494622
		0.209235
		0.600867
		0.857706
		-0.144044
		-0.499857
		0.332107
		0.0898265
		0.77684
		-0.288706
		0.929173
		0.134947
		0.161735
		0.0470602
			0.970854
		-0.402013
		-0.554434
		-0.961534
		-0.0192559
		0.937233
		0.42256
		-0.940099
		0.26935
		0.334679
		-0.948714
		-0.344714
		0.524354
		0.950135
		-0.463137
		0.352512
		-0.339231
		0.887766
		0.627897
		-0.159448
		0.236388
		0.203168
		-0.0806476
		-0.0140525
		-0.260872
		0.594571
		-0.0735535
		0.721226
		0.482106
		-0.0894671
		-0.755665
			0.937726
		0.365779
		0.422779
		-0.576984
		-0.245084
		0.780871
		-0.983284
		-0.245109
		-0.582442
		-0.124246
		0.631928
		-0.554187
		0.654392
		-0.649035
		-0.915195
		-0.600552
		-0.371771
		-0.340962
		-0.958289
		0.577873
		0.360308
		0.542504
		0.453901
		-0.78517
		-0.833285
		-0.866464
		-0.397169
		0.310269
		-0.808032
		0.984525
		0.380066
			1.0707
		0.974776
		0.147635
		-0.396062
		0.283933
		0.37209
		-0.227391
		0.663882
		-0.273528
		0.379183
		0.168689
		0.678277
		0.00314607
		-0.935735
		0.850588
		0.991084
		0.283743
		0.629196
		-0.786134
		-0.205551
		0.81249
		-0.0112001
		-0.0225265
		0.0261996
		0.916387
		-0.392168
		-0.352894
		-0.882149
		-0.127308
		-0.995577
		-0.475599
			0.980898
		-1
		-0.231029
		-0.637369
		0.913753
		0.0405998
		0.150344
		-0.227419
		-0.437688
		0.621395
		-0.684427
		0.355211
		0.503827
		0.265775
		0.498839
		0.846052
		0.907365
		-0.623503
		0.198992
		0.88949
		0.596285
		0.764967
		-0.286954
		-0.278834
		0.295752
		0.431246
		-0.592533
		0.616525
		0.121456
		-0.313056
		0.235763
			0.941183
		0.79667
		-0.227052
		-0.951324
		0.537987
		0.124631
		-0.0676991
		-0.640226
		0.784399
		-0.542673
		0.635776
		-0.747448
		0.00468495
		0.335524
		0.322353
		-0.912109
		-0.950251
		0.95484
		-0.837832
		0.091141
		0.555424
		-0.497198
		0.00790456
		0.311603
		0.815756
		0.785955
		-0.922473
		0.979905
		-0.65112
		0.63523
		-0.214317
			1.01152
		0.173331
		0.626011
		-0.337261
		-0.268835
		-0.0178401
		0.166183
		-0.796615
		-0.765131
		-0.555051
		-0.357053
		-0.542843
		-0.822742
		-0.0021654
		0.272666
		0.64305
		-0.176223
		-0.446982
		-0.983455
		-0.319541
		0.941784
		-0.398095
		0.616999
		-0.787385
		-0.18381
		0.0740957
		-0.064879
		0.121249
		-0.822219
		-0.627712
		-0.439163
			0.975456
		-0.409342
		-0.420482
		0.0947581
		-0.0960504
		0.265597
		0.259736
		-0.348486
		-0.324794
		-0.108941
		-0.659838
		-0.384256
		0.87673
		0.0832458
		0.673614
		-0.862666
		-0.544692
		0.823405
		-0.931965
		-0.0766276
		0.201484
		-0.180136
		0.600296
		-0.969088
		-0.912172
		0.00914605
		0.237178
		-0.603921
		-0.630642
		-0.436838
		0.569187
			1.00396
		0.495828
		0.521937
		0.407769
		0.650704
		0.371099
		-0.860797
		-0.403991
		-0.577206
		0.828903
		-0.302332
		-0.96766
		0.663684
		-0.742755
		-0.862449
		0.0910598
		-0.364022
		-0.109389
		-0.933885
		-0.615102
		0.171298
		0.145068
		-0.715313
		0.30523
		-0.237935
		0.617236
		0.564901
		-0.663929
		-0.121597
		-0.518237
		0.0460979
			1.00899
		0.760621
		0.25686
		-0.302961
		0.30113
		-0.243683
		0.180899
		-0.148345
		0.241856
		0.475121
		0.118087
		0.794686
		0.277322
		0.530322
		-0.515962
		-0.622705
		-0.559888
		0.362369
		-0.506594
		-0.070291
		-0.182846
		0.668117
		-0.59669
		0.0420463
		-0.807526
		0.535197
		0.944403
		0.935254
		0.743577
		-0.129973
		-0.977979
			0.999817
		-0.653717
		-0.690625
		-0.0909096
		0.29667
		-0.830485
		0.413058
		-0.917836
		-0.465304
		-0.559781
		-0.741907
		0.762795
		0.497305
		-0.176297
		-0.596065
		-0.133673
		0.577107
		-0.921215
		-0.395405
		0.360836
		0.865391
		0.114955
		0.0307102
		-0.0579423
		-0.93773
		-0.765415
		-0.399892
		0.0242059
		-0.23428
		-0.112462
		-0.686961
			0.963263
		-0.528429
		0.441945
		-0.180957
		-0.610612
		-0.586349
		-0.189105
		0.265901
		0.0762048
		-0.176829
		-0.00389464
		-0.494612
		-0.577476
		-0.130683
		-0.316374
		-0.891466
		0.127205
		-0.41821
		0.356482
		0.836601
		-0.0626103
		-0.45929
		-0.575621
		-0.0873477
		-0.342421
		-0.0394293
		-0.570469
		-0.853917
		0.753518
		0.812836
		0.767679
			0.944089
		-0.119727
		-0.758416
		-0.45421
		0.673862
		-0.46836
		0.537335
		0.119074
		-0.984188
		0.842066
		-0.0820904
		0.070261
		0.846794
		0.492735
		0.0378166
		0.177642
		-0.175262
		0.423681
		-0.716417
		-0.458519
		-0.480837
		-0.559002
		-0.679689
		-0.116835
		-0.0651434
		-0.21699
		0.121671
		0.753165
		-0.947595
		-0.945779
		-0.681486
			0.97514
		-0.898027
		-0.179869
		0.103347
		-0.786213
		0.679153
		0.2994
		0.98284
		0.245074
		-0.91072
		-0.863986
		-0.426962
		0.302005
		-0.426267
		-0.396298
		0.470207
		-0.733765
		-0.0287147
		0.349673
		0.553788
		-0.572596
		-0.908287
		0.853479
		-0.731214
		-0.972251
		-0.358969
		0.1118
		0.702214
		0.637673
		-0.353804
		0.340291
			0.989706
	}
	{
	2
		-0.0187765
		0.582076
		-0.581519
		-0.306932
		0.735642
		-0.598074
		0.825495
		0.185458
		0.443474
		0.0119051
		-0.345231
		0.510062
		0.0415127
		0.901805
		-0.603529
			0.994555
		-0.0937034
		-0.502181
		-0.491419
		0.026819
		-0.566588
		0.897727
		0.53378
		0.927925
		0.915214
		0.204993
		-0.811268
		-0.644639
		0.850939
		0.762082
		-0.206734
			1.02479
	}
}
